P 0 570.966 -46.4418 -940.461
P 1 580.009 -62.2661 -1055.35
P 2 580.237 -85.6775 -1022.49
P 3 580.003 -35.3382 -1058.38
P 4 580.151 -10.8758 -1030.75
P 5 580.972 5.2975 -980.051
P 6 582.864 8.34901 -920.219
P 7 585.382 -3.78777 -867.457
P 8 587.296 -28.6133 -835.599
P 9 587.487 -58.9609 -832.68
P 10 585.836 -85.4286 -859.423
P 11 583.327 -100.188 -909.122
P 12 581.25 -99.8197 -968.844
P 13 610.936 -72.6094 -1132.3
P 14 610.288 -112.268 -1079.63
P 15 611.036 -28.0862 -1137.15
P 16 610.373 13.0302 -1092.87
P 17 610.67 41.9104 -1011.53
P 18 613.567 49.3587 -915.813
P 19 618.439 29.6394 -832.106
P 20 622.447 -14.2623 -803.813
P 21 622.854 -69.0443 -810.126
P 22 619.374 -116.177 -819.445
P 23 614.41 -140.814 -898.137
P 24 611.002 -138.004 -993.565
P 25 653.469 -97.4305 -1171.55
P 26 653.531 -122.507 -1173.28
P 27 657.365 -80.2471 -1250.79
P 28 654.117 -52.751 -1188.35
P 29 656.255 -26.6058 -1232.14
P 30 653.948 -1.48674 -1184.21
P 31 654.958 19.6512 -1284.39
P 32 651.957 38.3111 -1113.6
P 33 651.63 60.0871 -1086.04
P 34 654.193 71.1296 -938.766
P 35 675.736 57.8291 -839.249
P 36 680.313 -12.778 -783.565
P 37 681.266 -74.7612 -774.172
P 38 676.597 -124.946 -812.818
P 39 655.148 -158.257 -918.038
P 40 651.581 -148.571 -1077.65
P 41 651.708 -129.094 -1094.92
P 42 656.158 -133.938 -1230.41
P 43 659.765 -113.487 -1285.69
P 44 661.951 -74.4716 -1349.41
P 45 662.162 -6.11449 -1315.57
P 46 657.671 52.0849 -1217.01
P 47 528.132 -46.4418 -952.074
P 48 537.175 -62.2661 -1044.8
P 49 537.403 -85.6775 -1018.28
P 50 537.169 -35.3382 -1047.24
P 51 537.318 -10.8758 -1024.94
P 52 538.138 5.2975 -984.026
P 53 540.03 8.34901 -935.737
P 54 542.548 -3.78777 -893.155
P 55 544.462 -28.6133 -867.443
P 56 544.653 -58.9609 -865.087
P 57 543.002 -85.4286 -886.671
P 58 540.493 -100.188 -926.781
P 59 538.416 -99.8197 -974.981
P 60 568.101 -72.6094 -1106.9
P 61 567.454 -112.268 -1064.39
P 62 568.202 -28.0862 -1110.81
P 63 567.539 13.0302 -1075.07
P 64 567.836 41.9104 -1009.43
P 65 570.733 49.3587 -932.181
P 66 575.605 29.6394 -864.624
P 67 579.613 -14.2623 -824.237
P 68 580.02 -69.0443 -820.556
P 69 576.54 -116.177 -854.405
P 70 571.576 -140.814 -917.916
P 71 568.168 -138.004 -994.933
P 72 610.634 -97.4305 -1138.58
P 73 610.697 -122.507 -1139.97
P 74 614.531 -80.2471 -1202.53
P 75 611.283 -52.751 -1152.14
P 76 613.421 -26.6058 -1187.47
P 77 611.114 -1.48674 -1148.79
P 78 612.124 21.9213 -1167.35
P 79 609.123 38.3111 -1091.81
P 80 608.796 78.2482 -1078.65
P 81 611.359 71.1296 -950.706
P 82 632.902 57.8291 -843.702
P 83 622.208 -3.69743 -815.99
P 84 623.16 -74.7612 -802.972
P 85 633.763 -138.567 -832.926
P 86 612.313 -158.257 -933.976
P 87 608.747 -162.192 -1074.15
P 88 608.874 -129.094 -1076.74
P 89 613.324 -133.938 -1186.08
P 90 616.931 -99.8661 -1230.69
P 91 619.117 -49.5 -1252.81
P 92 619.328 -6.11449 -1254.81
P 93 614.837 33.9237 -1206.42
P 94 1850.41 -60.1036 -1048.29
P 95 1617.97 39.7338 -1127.05
P 96 1611.2 62.3744 -1076.52
P 97 1585.21 84.4424 -1020.44
P 98 1607.98 37.9393 -969.841
P 99 1609.78 -13.087 -934.677
P 100 1599.04 -67.3005 -921.937
P 101 1598.29 -115.548 -934.223
P 102 1578.09 -162.666 -969.181
P 103 1558.86 -187.306 -1019.91
P 104 1612.85 -163.385 -1076.3
P 105 1614.07 -142.876 -1127.1
P 106 1616.27 -105.846 -1162.19
P 107 1619.01 -59.6308 -1174.65
P 108 1621.76 -13.3828 -1162.08
P 109 1467.28 80.2494 -1163.66
P 110 1481.49 137.438 -1102.64
P 111 1483.5 137.57 -994.679
P 112 1995.87 97.3819 -973.113
P 113 1938.0 160.268 -932.284
P 114 1974.66 81.0217 -934.135
P 115 2020.74 42.3371 -977.646
P 116 1997.73 16.2419 -933.927
P 117 2029.29 -18.0617 -975.456
P 118 2004.86 -77.5984 -933.063
P 119 2025.3 -82.2332 -970.324
P 120 1991.83 -169.141 -930.055
P 121 2022.23 -139.343 -971.043
P 122 1958.94 -241.216 -924.155
P 123 2002.27 -195.116 -966.21
P 124 1919.43 -292.342 -920.666
P 125 1979.59 -224.282 -963.039
P 126 1453.25 -244.805 -993.433
P 127 1453.24 -244.937 -1102.42
P 128 1455.44 -207.98 -1164.23
P 129 1459.41 -141.256 -1211.13
P 130 1466.35 -57.9781 -1234.97
P 131 1469.31 25.3579 -1210.53
P 132 1252.01 131.854 -1219.01
P 133 1254.76 178.234 -1122.46
P 134 1254.77 178.399 -975.127
P 135 1252.03 132.315 -842.07
P 136 1509.3 70.6209 -897.2
P 137 1257.83 49.1106 -760.098
P 138 1523.33 15.8934 -829.326
P 139 1240.92 -54.7347 -731.565
P 140 1526.38 -63.385 -804.564
P 141 1234.74 -158.653 -763.583
P 142 1513.43 -140.722 -828.074
P 143 1229.79 -242.062 -839.473
P 144 1483.46 -201.613 -895.458
P 145 1227.03 -288.442 -973.327
P 146 1227.02 -288.606 -1122.25
P 147 1229.76 -242.522 -1220.0
P 148 1249.39 -159.318 -1239.74
P 149 1255.56 -55.4727 -1272.21
P 150 1261.73 48.4457 -1238.75
P 151 1003.97 134.716 -1239.05
P 152 1006.72 181.096 -1129.64
P 153 1006.73 181.261 -968.035
P 154 1003.99 135.177 -822.102
P 155 1001.73 51.9725 -739.263
P 156 995.562 -51.8727 -707.53
P 157 984.018 -155.791 -737.335
P 158 981.745 -239.2 -819.427
P 159 978.989 -285.58 -966.139
P 160 978.979 -285.744 -1129.35
P 161 984.25 -239.66 -1234.6
P 162 1001.35 -156.456 -1268.63
P 163 1007.52 -52.6107 -1304.29
P 164 1013.69 51.3077 -1267.68
P 165 841.592 100.266 -1192.6
P 166 803.289 137.459 -1113.42
P 167 780.508 137.591 -978.744
P 168 778.312 100.635 -852.332
P 169 768.977 33.9101 -777.835
P 170 769.397 -49.3673 -751.254
P 171 756.391 -132.703 -789.91
P 172 760.47 -199.592 -850.416
P 173 758.259 -236.786 -977.281
P 174 803.829 -236.918 -1109.41
P 175 838.942 -199.961 -1189.42
P 176 789.224 -133.236 -1215.23
P 177 784.044 -49.959 -1255.2
P 178 788.997 33.3769 -1223.67
P 179 690.572 35.3253 -1159.59
P 180 689.267 55.9663 -1085.9
P 181 620.904 56.0395 -1007.66
P 182 619.686 35.5303 -933.86
P 183 617.485 -1.49915 -882.621
P 184 614.739 -47.7146 -864.116
P 185 611.99 -93.9627 -882.089
P 186 609.784 -131.083 -933.06
P 187 608.557 -151.724 -1006.95
P 188 687.048 -151.797 -1089.08
P 189 728.78 -131.288 -1148.77
P 190 669.446 -94.2585 -1170.97
P 191 665.361 -48.043 -1173.08
P 192 670.387 -1.795 -1172.36
P 193 559.535 -47.2421 -1048.29
P 194 1611.47 -269.097 -1061.4
P 195 1423.87 -289.967 -1017.66
P 196 1537.26 -294.595 -1068.98
P 197 1449.44 -239.246 -966.705
P 198 1249.47 -241.722 -919.1
P 199 1245.1 -304.531 -992.297
P 200 1252.16 -344.065 -1078.42
P 201 1450.98 -319.672 -1093.89
P 202 1378.63 -324.52 -1107.08
P 203 1054.5 -227.927 -906.979
P 204 1050.02 -294.115 -988.471
P 205 1056.94 -337.403 -1061.99
P 206 1143.68 -339.504 -1183.49
P 207 1023.55 -318.549 -1136.13
P 208 1251.57 -342.206 -1172.42
P 209 1159.88 -340.001 -1129.11
P 210 880.894 -206.331 -938.218
P 211 877.214 -261.831 -1009.51
P 212 903.427 -297.594 -1057.04
P 213 919.852 -297.121 -1156.84
P 214 1021.72 -336.31 -1192.57
P 215 762.972 -182.989 -1010.99
P 216 760.898 -214.706 -1052.81
P 217 802.233 -237.804 -1085.94
P 218 851.828 -242.978 -1134.24
P 219 1822.57 -283.513 -973.977
P 220 1334.4 -330.35 -1126.21
P 221 1290.18 -336.18 -1145.35
P 222 1540.96 -322.814 -1093.89
P 223 1493.16 -321.145 -1127.6
P 224 1386.31 -317.413 -1159.34
P 225 1332.88 -315.548 -1175.2
P 226 1209.16 -311.227 -1200.99
P 227 1119.18 -308.085 -1206.94
P 228 1698.03 -279.163 -1035.99
P 229 1465.3 264.09 -998.638
P 230 1352.21 254.66 -925.833
P 231 1541.56 226.648 -987.883
P 232 1172.19 273.213 -889.855
P 233 1181.5 177.278 -786.016
P 234 1381.79 177.646 -853.55
P 235 1176.14 333.803 -1012.03
P 236 1377.0 300.637 -1033.98
P 237 1304.23 306.547 -1052.68
P 238 977.804 253.238 -884.428
P 239 987.493 152.139 -768.821
P 240 981.332 319.563 -988.73
P 241 949.401 290.045 -1093.9
P 242 1067.95 324.576 -1161.09
P 243 1084.13 325.673 -1083.94
P 244 1175.7 330.948 -1145.39
P 245 807.434 200.292 -914.278
P 246 815.48 115.518 -813.137
P 247 830.852 255.514 -981.705
P 248 946.174 317.161 -1173.97
P 249 847.323 255.131 -1123.28
P 250 694.753 125.829 -975.696
P 251 699.322 77.3818 -916.374
P 252 734.297 162.002 -1022.7
P 253 783.516 170.942 -1091.22
P 254 1751.66 253.071 -863.867
P 255 1214.8 322.536 -1106.98
P 256 1259.51 314.541 -1079.83
P 257 1466.79 307.309 -1033.98
P 258 1419.09 303.765 -1081.81
P 259 1312.47 295.841 -1126.82
P 260 1259.16 291.88 -1149.33
P 261 1135.7 282.705 -1185.91
P 262 1045.91 276.033 -1194.35
P 263 1627.38 243.835 -951.834
P 264 1537.26 185.147 -1068.98
P 265 1423.87 180.519 -1017.66
P 266 1611.47 159.649 -1061.4
P 267 1245.1 195.082 -992.297
P 268 1249.47 132.273 -919.1
P 269 1449.44 129.798 -966.705
P 270 1252.16 234.617 -1078.42
P 271 1450.98 210.223 -1093.89
P 272 1378.63 215.071 -1107.08
P 273 1050.02 184.667 -988.471
P 274 1054.5 118.478 -906.979
P 275 1056.94 227.954 -1061.99
P 276 1023.55 209.101 -1136.13
P 277 1143.68 230.055 -1183.49
P 278 1159.88 230.553 -1129.11
P 279 1251.57 232.758 -1172.42
P 280 877.214 152.383 -1009.51
P 281 880.894 96.8829 -938.218
P 282 903.427 188.146 -1057.04
P 283 1021.72 226.862 -1192.57
P 284 919.852 187.672 -1156.84
P 285 760.898 105.257 -1052.81
P 286 762.972 73.5405 -1010.99
P 287 802.233 128.356 -1085.94
P 288 851.828 133.53 -1134.24
P 289 1822.57 174.064 -973.977
P 290 1290.18 226.731 -1145.35
P 291 1334.4 220.901 -1126.21
P 292 1540.96 213.365 -1093.89
P 293 1493.16 211.696 -1127.6
P 294 1386.31 207.965 -1159.34
P 295 1332.88 206.099 -1175.2
P 296 1209.16 201.779 -1200.99
P 297 1119.18 198.637 -1206.94
P 298 1698.03 169.715 -1035.99
P 299 1541.56 -336.096 -987.883
P 300 1352.21 -364.108 -925.833
P 301 1465.3 -373.538 -998.638
P 302 1381.79 -287.094 -853.55
P 303 1181.5 -286.726 -786.016
P 304 1172.19 -382.662 -889.855
P 305 1176.14 -443.251 -1012.03
P 306 1377.0 -410.085 -1033.98
P 307 1304.23 -415.995 -1052.68
P 308 987.493 -261.587 -768.821
P 309 977.804 -362.687 -884.428
P 310 981.332 -429.012 -988.73
P 311 1067.95 -434.024 -1161.09
P 312 949.401 -399.493 -1093.9
P 313 1175.7 -440.396 -1145.39
P 314 1084.13 -435.121 -1083.94
P 315 815.48 -224.966 -813.137
P 316 807.434 -309.741 -914.278
P 317 830.852 -364.962 -981.705
P 318 847.323 -364.579 -1123.28
P 319 946.174 -426.61 -1173.97
P 320 699.322 -186.83 -916.374
P 321 694.753 -235.278 -975.696
P 322 734.297 -271.45 -1022.7
P 323 783.516 -280.39 -1091.22
P 324 1751.66 -362.519 -863.867
P 325 1259.51 -423.99 -1079.83
P 326 1214.8 -431.985 -1106.98
P 327 1466.79 -416.758 -1033.98
P 328 1419.09 -413.213 -1081.81
P 329 1312.47 -405.29 -1126.82
P 330 1259.16 -401.328 -1149.33
P 331 1135.7 -392.153 -1185.91
P 332 1045.91 -385.481 -1194.35
P 333 1627.38 -353.284 -951.834
P 334 1091.49 -249.923 -1441.02
P 335 1177.07 -227.231 -1402.59
P 336 1167.86 -294.851 -1402.75
P 337 1135.77 -172.904 -1403.31
P 338 1068.16 -163.693 -1404.49
P 339 1013.84 -204.995 -1405.44
P 340 1004.63 -272.615 -1405.6
P 341 1045.93 -326.943 -1404.88
P 342 1113.54 -336.153 -1403.7
P 343 1211.22 -217.832 -1312.81
P 344 1198.2 -313.461 -1313.04
P 345 1152.82 -141.001 -1313.83
P 346 1057.21 -127.976 -1315.5
P 347 980.388 -186.386 -1316.84
P 348 967.364 -282.015 -1317.07
P 349 1025.77 -358.845 -1316.05
P 350 1121.38 -371.871 -1314.38
P 351 1173.95 -227.231 -1224.29
P 352 1164.74 -294.851 -1224.45
P 353 1132.66 -172.904 -1225.01
P 354 1065.05 -163.693 -1226.19
P 355 1010.73 -204.995 -1227.14
P 356 1001.52 -272.615 -1227.3
P 357 1042.82 -326.943 -1226.57
P 358 1110.43 -336.153 -1225.39
P 359 1087.09 -249.923 -1188.86
P 360 1067.09 -235.66 -2942.65
P 361 1107.21 -212.2 -2940.9
P 362 1114.03 -247.008 -2942.69
P 363 1094.15 -276.384 -2944.48
P 364 1059.22 -283.121 -2945.22
P 365 1029.7 -263.271 -2944.48
P 366 1022.88 -228.463 -2942.69
P 367 1042.76 -199.087 -2940.9
P 368 1077.69 -192.351 -2940.16
P 369 1479.29 -153.171 -3002.37
P 370 1480.28 -153.475 -2998.15
P 371 1481.03 -157.097 -2998.25
P 372 1479.82 -155.732 -3002.45
P 373 1132.06 -255.02 -2915.13
P 374 1103.95 -296.564 -2917.66
P 375 1054.55 -306.09 -2918.71
P 376 852.562 -549.85 -3025.69
P 377 851.099 -557.044 -3025.42
P 378 844.383 -552.529 -3025.42
P 379 847.814 -546.657 -3025.69
P 380 625.299 -314.094 -3031.03
P 381 622.886 -319.296 -3028.28
P 382 621.945 -314.496 -3028.26
P 383 624.635 -310.7 -3031.01
P 384 705.301 22.8683 -3007.72
P 385 703.037 18.9861 -3007.47
P 386 705.146 22.1019 -3007.46
P 387 706.792 25.0715 -3007.71
P 388 1031.27 -187.249 -2912.6
P 389 1080.67 -177.722 -2911.55
P 390 1122.42 -205.794 -2912.6
P 391 1105.52 -220.541 -2885.78
P 392 1112.34 -255.349 -2887.57
P 393 1092.46 -284.725 -2889.37
P 394 1057.53 -291.461 -2890.11
P 395 1028.0 -271.612 -2889.37
P 396 1012.8 -278.019 -2917.66
P 397 1021.18 -236.804 -2887.57
P 398 1003.15 -228.793 -2915.13
P 399 1041.06 -207.427 -2885.78
P 400 1075.99 -200.691 -2885.04
P 401 1066.41 -247.804 -2876.16
P 402 847.083 -292.308 -2990.88
P 403 830.182 -307.056 -2964.07
P 404 820.536 -257.83 -2961.54
P 405 840.264 -257.501 -2989.09
P 406 863.266 -113.576 -2982.65
P 407 843.539 -113.905 -2955.1
P 408 871.651 -72.3608 -2952.56
P 409 883.144 -84.1992 -2980.86
P 410 959.527 -426.113 -2995.31
P 411 954.854 -449.083 -2968.8
P 412 913.103 -421.011 -2967.75
P 413 930.004 -406.264 -2994.57
P 414 1297.16 -169.236 -2980.47
P 415 1312.37 -162.829 -2952.18
P 416 1322.01 -212.055 -2954.71
P 417 1303.98 -204.044 -2982.26
P 418 1095.74 -249.354 -2895.63
P 419 1098.54 -233.143 -2895.63
P 420 1109.38 -233.143 -2067.9
P 421 1106.57 -249.354 -2067.9
P 422 1085.9 -222.61 -2895.63
P 423 1096.74 -222.61 -2067.9
P 424 1070.46 -228.29 -2895.63
P 425 1081.3 -228.29 -2067.9
P 426 1067.66 -244.501 -2895.63
P 427 1078.5 -244.501 -2067.9
P 428 1080.3 -255.034 -2895.63
P 429 1091.13 -255.034 -2067.9
P 430 1090.36 -303.038 -2030.59
P 431 1118.01 -285.038 -2063.77
P 432 1133.37 -285.038 -2034.5
P 433 1123.54 -285.038 -2002.94
P 434 1094.27 -285.038 -1987.58
P 435 1062.71 -285.038 -1997.41
P 436 1047.34 -285.038 -2026.68
P 437 1057.18 -285.038 -2058.24
P 438 1086.45 -285.038 -2073.6
P 439 1129.46 -241.585 -2077.51
P 440 1151.18 -241.585 -2036.12
P 441 1137.28 -241.585 -1991.49
P 442 1095.89 -241.585 -1969.76
P 443 1051.25 -241.585 -1983.67
P 444 1029.53 -241.585 -2025.06
P 445 1043.43 -241.585 -2069.69
P 446 1084.83 -241.585 -2091.42
P 447 1118.01 -198.131 -2063.77
P 448 1133.37 -198.131 -2034.5
P 449 1123.54 -198.131 -2002.94
P 450 1094.27 -198.131 -1987.58
P 451 1062.71 -198.131 -1997.41
P 452 1047.34 -198.131 -2026.68
P 453 1057.18 -198.131 -2058.24
P 454 1086.45 -198.131 -2073.6
P 455 1090.36 -180.131 -2030.59
P 456 1095.74 -249.354 -2020.92
P 457 1098.54 -233.143 -2020.92
P 458 1109.38 -233.143 -1193.2
P 459 1106.57 -249.354 -1193.2
P 460 1085.9 -222.61 -2020.92
P 461 1096.74 -222.61 -1193.2
P 462 1070.46 -228.29 -2020.92
P 463 1081.3 -228.29 -1193.2
P 464 1067.66 -244.501 -2020.92
P 465 1078.5 -244.501 -1193.2
P 466 1080.3 -255.034 -2020.92
P 467 1091.13 -255.034 -1193.2
P 468 1114.03 139.132 -2942.69
P 469 1107.21 104.324 -2940.9
P 470 1067.09 127.784 -2942.65
P 471 1094.15 168.508 -2944.48
P 472 1059.22 175.245 -2945.22
P 473 1029.7 155.395 -2944.48
P 474 1022.88 120.587 -2942.69
P 475 1042.76 91.2108 -2940.9
P 476 1077.69 84.4747 -2940.16
P 477 1481.03 49.2209 -2998.25
P 478 1480.28 45.5992 -2998.15
P 479 1479.29 45.2951 -3002.37
P 480 1479.82 47.8561 -3002.45
P 481 1103.95 188.688 -2917.66
P 482 1132.06 147.143 -2915.13
P 483 1054.55 198.214 -2918.71
P 484 844.383 444.653 -3025.42
P 485 851.099 449.168 -3025.42
P 486 852.562 441.974 -3025.69
P 487 847.814 438.781 -3025.69
P 488 621.945 206.62 -3028.26
P 489 622.886 211.419 -3028.28
P 490 625.299 206.218 -3031.03
P 491 624.635 202.824 -3031.01
P 492 705.146 -129.978 -3007.46
P 493 703.037 -126.862 -3007.47
P 494 705.301 -130.744 -3007.72
P 495 706.792 -132.948 -3007.71
P 496 1080.67 69.8458 -2911.55
P 497 1031.27 79.3725 -2912.6
P 498 1122.42 97.9176 -2912.6
P 499 1112.34 147.473 -2887.57
P 500 1105.52 112.665 -2885.78
P 501 1092.46 176.849 -2889.37
P 502 1057.53 183.585 -2890.11
P 503 1028.0 163.735 -2889.37
P 504 1012.8 170.142 -2917.66
P 505 1021.18 128.928 -2887.57
P 506 1003.15 120.917 -2915.13
P 507 1041.06 99.5514 -2885.78
P 508 1075.99 92.8153 -2885.04
P 509 1066.41 139.928 -2876.16
P 510 847.083 184.432 -2990.88
P 511 830.182 199.18 -2964.07
P 512 820.536 149.954 -2961.54
P 513 840.264 149.625 -2989.09
P 514 863.266 5.69951 -2982.65
P 515 843.539 6.02884 -2955.1
P 516 871.651 -35.5153 -2952.56
P 517 883.144 -23.677 -2980.86
P 518 959.527 318.237 -2995.31
P 519 954.854 341.207 -2968.8
P 520 913.103 313.135 -2967.75
P 521 930.004 298.387 -2994.57
P 522 1297.16 61.3599 -2980.47
P 523 1312.37 54.9531 -2952.18
P 524 1322.01 104.179 -2954.71
P 525 1303.98 96.168 -2982.26
P 526 1109.38 131.005 -2067.9
P 527 1098.54 131.005 -2895.63
P 528 1095.74 147.217 -2895.63
P 529 1106.57 147.217 -2067.9
P 530 1096.74 120.473 -2067.9
P 531 1085.9 120.473 -2895.63
P 532 1081.3 126.152 -2067.9
P 533 1070.46 126.152 -2895.63
P 534 1078.5 142.364 -2067.9
P 535 1067.66 142.364 -2895.63
P 536 1091.13 152.896 -2067.9
P 537 1080.3 152.896 -2895.63
P 538 1133.37 182.901 -2034.5
P 539 1090.36 77.9934 -2030.59
P 540 1086.45 95.9934 -2073.6
P 541 1123.54 182.901 -2002.94
P 542 1094.27 182.901 -1987.58
P 543 1062.71 182.901 -1997.41
P 544 1047.34 182.901 -2026.68
P 545 1057.18 182.901 -2058.24
P 546 1086.45 182.901 -2073.6
P 547 1151.18 139.447 -2036.12
P 548 1129.46 139.447 -2077.51
P 549 1137.28 139.447 -1991.49
P 550 1095.89 139.447 -1969.76
P 551 1051.25 139.447 -1983.67
P 552 1029.53 139.447 -2025.06
P 553 1043.43 139.447 -2069.69
P 554 1084.83 139.447 -2091.42
P 555 1133.37 95.9934 -2034.5
P 556 1118.01 95.9934 -2063.77
P 557 1123.54 95.9934 -2002.94
P 558 1094.27 95.9934 -1987.58
P 559 1062.71 95.9934 -1997.41
P 560 1047.34 95.9934 -2026.68
P 561 1057.18 95.9934 -2058.24
P 562 1091.49 132.715 -1450.36
P 563 1177.07 155.407 -1411.92
P 564 1167.86 87.7866 -1412.08
P 565 1135.77 209.734 -1412.64
P 566 1068.16 218.945 -1413.82
P 567 1013.84 177.643 -1414.77
P 568 1004.63 110.023 -1414.93
P 569 1045.93 55.6952 -1414.21
P 570 1113.54 46.4848 -1413.03
P 571 1211.22 164.806 -1322.15
P 572 1198.2 69.177 -1322.37
P 573 1152.82 241.637 -1323.17
P 574 1057.21 254.662 -1324.84
P 575 980.388 196.252 -1326.18
P 576 967.364 100.623 -1326.4
P 577 1025.77 23.7927 -1325.38
P 578 1121.38 10.7672 -1323.72
P 579 1173.95 155.407 -1233.62
P 580 1164.74 87.7866 -1233.78
P 581 1132.66 209.734 -1234.34
P 582 1065.05 218.945 -1235.52
P 583 1010.73 177.643 -1236.47
P 584 1001.52 110.023 -1236.63
P 585 1042.82 55.6952 -1235.91
P 586 1110.43 46.4848 -1234.73
P 587 1087.09 132.715 -1198.2
P 588 1109.38 131.005 -1193.2
P 589 1098.54 131.005 -2020.92
P 590 1095.74 147.217 -2020.92
P 591 1106.57 147.217 -1193.2
P 592 1096.74 120.473 -1193.2
P 593 1085.9 120.473 -2020.92
P 594 1081.3 126.152 -1193.2
P 595 1070.46 126.152 -2020.92
P 596 1078.5 142.364 -1193.2
P 597 1067.66 142.364 -2020.92
P 598 1091.13 152.896 -1193.2
P 599 1080.3 152.896 -2020.92
P 600 -0.217163 -122.341 38.2749
P 601 11.9798 -139.285 -68.0352
P 602 79.9849 -122.341 -58.2795
P 603 -65.921 -139.285 51.9047
P 604 51.6713 -139.285 -92.7585
P 605 80.3662 -139.285 -85.2238
P 606 -40.5735 -138.497 201.009
P 607 45.4692 -160.982 131.001
P 608 -21.366 -47.4128 207.17
P 609 71.5782 -47.4128 135.59
P 610 150.653 -63.5688 42.8855
P 611 130.795 -185.267 37.7003
P 612 210.707 -205.954 -24.9538
P 613 237.34 -77.0321 -21.2859
P 614 -24.4996 -177.138 96.6306
P 615 21.4768 -177.138 107.977
P 616 -26.0212 -154.652 210.71
P 617 55.1621 -201.423 -8.31303
P 618 94.2131 -201.423 5.35941
P 619 122.518 -222.11 -85.8659
P 620 164.35 -222.11 -68.5033
P 621 3.78931 -160.982 97.6358
P 622 26.6314 -160.982 124.282
P 623 89.1146 -185.267 4.33523
P 624 111.957 -185.267 30.9818
P 625 169.027 -205.954 -58.3189
P 626 191.869 -205.954 -31.6724
P 627 -186.072 -94.8523 214.896
P 628 -171.893 -101.588 228.716
P 629 -199.2 -79.3156 245.518
P 630 -159.539 -101.314 267.138
P 631 -135.528 -101.588 249.206
P 632 -106.495 -132.739 276.427
P 633 -95.3262 -101.588 237.98
P 634 -56.3546 -166.26 247.853
P 635 -245.123 -74.32 214.854
P 636 -222.944 -104.284 268.753
P 637 -258.75 -10.4031 268.034
P 638 -284.452 -10.4031 243.446
P 639 -195.986 -10.4031 306.217
P 640 -139.893 -118.675 299.633
P 641 -111.216 -10.4031 322.781
P 642 -56.4958 -133.966 285.677
P 643 -26.4668 -10.4031 308.599
P 644 51.33 -154.652 236.884
P 645 83.1888 -10.4031 259.499
P 646 168.133 -177.138 181.463
P 647 201.981 -10.4031 203.746
P 648 -74.8368 -101.588 201.615
P 649 -31.7086 -171.597 227.334
P 650 -11.2192 -171.597 190.969
P 651 -22.4448 -171.597 150.767
P 652 -86.0624 -101.588 161.413
P 653 -58.8096 -171.597 130.278
P 654 -122.427 -101.588 140.924
P 655 326.572 -10.4031 121.398
P 656 290.576 -201.423 99.4749
P 657 398.402 -222.11 50.6818
P 658 436.228 -23.1789 72.2989
P 659 -6.09058 -154.652 88.763
P 660 47.7455 -154.652 150.46
P 661 110.712 -177.138 33.3428
P 662 152.137 -177.138 69.816
P 663 249.545 -201.423 -32.2777
P 664 282.558 -201.423 2.87305
P 665 360.916 -222.11 -76.2038
P 666 394.817 -222.11 -35.7415
P 667 130.19 -177.138 132.145
P 668 148.668 -177.138 168.639
P 669 252.633 -201.423 50.156
P 670 271.111 -201.423 86.6503
P 671 360.459 -222.11 1.3629
P 672 378.937 -222.11 37.8572
P 673 -18.2114 -122.341 21.8768
P 674 -6.0144 -139.285 -84.4333
P 675 61.9906 -122.341 -74.6776
P 676 -83.9153 -139.285 35.5066
P 677 33.677 -139.285 -109.157
P 678 62.3719 -139.285 -101.622
P 679 25.6485 -122.341 60.2877
P 680 37.8454 -139.285 -46.0224
P 681 105.851 -122.341 -36.2668
P 682 -40.0554 -139.285 73.9174
P 683 77.5369 -139.285 -70.7457
P 684 106.232 -139.285 -63.2111
P 685 -92.3032 -101.588 81.6598
P 686 -112.984 -101.588 102.639
P 687 60.337 -129.477 215.883
P 688 182.66 -44.8696 153.671
P 689 70.8922 -50.2549 233.873
P 690 167.548 -144.521 136.443
P 691 262.398 -157.337 89.8216
P 692 279.13 -47.5622 106.778
P 693 25.7153 -129.477 166.008
P 694 132.926 -144.521 86.5687
P 695 42.8093 -129.477 202.734
P 696 150.02 -144.521 123.295
P 697 227.776 -157.337 39.9469
P 698 244.87 -157.337 76.6729
P 699 79.9849 88.7586 -58.2795
P 700 11.9798 105.703 -68.0352
P 701 -0.217163 88.7586 38.2749
P 702 -65.921 105.703 51.9047
P 703 51.6713 105.703 -92.7585
P 704 80.3662 105.703 -85.2238
P 705 -30.1321 13.8308 219.028
P 706 43.3925 127.4 149.293
P 707 -48.6953 104.915 211.134
P 708 68.9719 13.8308 156.252
P 709 156.198 29.9868 71.1718
P 710 136.897 151.685 64.1913
P 711 222.207 172.372 9.11221
P 712 248.393 43.4501 15.2017
P 713 -35.0916 121.07 222.126
P 714 21.6074 143.556 124.171
P 715 -23.1379 143.556 108.665
P 716 65.7921 167.841 11.4505
P 717 103.428 167.841 28.6388
P 718 139.962 188.528 -59.6138
P 719 180.03 188.528 -38.4963
P 720 25.2484 127.4 140.879
P 721 4.94031 127.4 112.254
P 722 98.4448 151.685 27.1524
P 723 118.753 151.685 55.7773
P 724 183.755 172.372 -27.9267
P 725 204.063 172.372 0.698105
P 726 -199.2 45.7336 245.518
P 727 -171.893 68.0061 228.716
P 728 -186.072 61.2704 214.896
P 729 -159.539 67.7316 267.138
P 730 -135.528 68.0061 249.206
P 731 -106.495 99.1573 276.427
P 732 -95.3262 68.0061 237.98
P 733 -56.3546 132.678 247.853
P 734 -245.123 40.738 214.854
P 735 -222.944 70.7023 268.753
P 736 -139.893 85.0932 299.633
P 737 -56.4958 100.384 285.677
P 738 51.33 121.07 236.884
P 739 168.133 143.556 181.463
P 740 -74.8368 68.0061 201.615
P 741 -31.7086 138.015 227.334
P 742 -11.2192 138.015 190.969
P 743 -22.4448 138.015 150.767
P 744 -86.0624 68.0061 161.413
P 745 -58.8096 138.015 130.278
P 746 -122.427 68.0061 140.924
P 747 290.576 167.841 99.4749
P 748 398.402 188.528 50.6818
P 749 436.228 -10.4031 72.2989
P 750 47.7455 121.07 150.46
P 751 -6.09058 121.07 88.763
P 752 110.712 143.556 33.3428
P 753 152.137 143.556 69.816
P 754 249.545 167.841 -32.2777
P 755 282.558 167.841 2.87305
P 756 360.916 188.528 -76.2038
P 757 394.817 188.528 -35.7415
P 758 148.668 143.556 168.639
P 759 130.19 143.556 132.145
P 760 252.633 167.841 50.156
P 761 271.111 167.841 86.6503
P 762 360.459 188.528 1.3629
P 763 378.937 188.528 37.8572
P 764 61.9906 88.7586 -74.6776
P 765 -6.0144 105.703 -84.4333
P 766 -18.2114 88.7586 21.8768
P 767 -83.9153 105.703 35.5066
P 768 33.677 105.703 -109.157
P 769 62.3719 105.703 -101.622
P 770 105.851 88.7586 -36.2668
P 771 37.8454 105.703 -46.0224
P 772 25.6485 88.7586 60.2877
P 773 -40.0554 105.703 73.9174
P 774 77.5369 105.703 -70.7457
P 775 106.232 105.703 -63.2111
P 776 -112.984 68.0061 102.639
P 777 -92.3032 68.0061 81.6598
P 778 70.8922 16.6729 233.873
P 779 182.66 11.2876 153.671
P 780 60.337 95.8948 215.883
P 781 167.548 110.939 136.443
P 782 262.398 123.755 89.8216
P 783 279.13 13.9803 106.778
P 784 42.8093 95.8948 202.734
P 785 132.926 110.939 86.5687
P 786 25.7153 95.8948 166.008
P 787 150.02 110.939 123.295
P 788 227.776 123.755 39.9469
P 789 244.87 123.755 76.6729
P 790 -643.746 -12.9011 87.8015
P 791 -758.001 -12.9011 35.9063
P 792 -632.369 -42.4329 65.2172
P 793 -620.484 -58.4809 48.2736
P 794 -632.369 8.85094 65.2172
P 795 -620.484 24.8989 48.2736
P 796 -285.165 -97.8147 138.921
P 797 -297.415 -12.9011 226.543
P 798 -371.149 -12.9011 198.032
P 799 -404.878 -77.5603 124.501
P 800 -492.087 -12.9011 148.738
P 801 -487.011 -65.4939 107.881
P 802 -564.418 -12.9011 117.684
P 803 -556.671 -54.4994 85.094
P 804 -548.093 -73.5724 70.2197
P 805 -513.135 -79.0696 77.5807
P 806 -440.879 -93.8343 87.938
P 807 -276.172 -124.226 111.4
P 808 -360.914 -109.551 99.2627
P 809 -191.863 -105.469 160.083
P 810 -195.265 -94.8523 190.71
P 811 -257.236 -74.32 188.584
P 812 -155.006 -137.318 104.742
P 813 -137.567 -116.085 141.519
P 814 -399.955 -102.566 91.5584
P 815 -476.088 -87.801 85.8676
P 816 -285.165 64.2327 138.921
P 817 -404.878 43.9783 124.501
P 818 -487.011 31.9119 107.881
P 819 -556.671 20.9174 85.094
P 820 -548.093 39.9904 70.2197
P 821 -513.135 45.4876 77.5807
P 822 -440.879 60.2523 87.938
P 823 -360.914 75.9688 99.2627
P 824 -276.172 90.6436 111.4
P 825 -195.265 61.2704 190.71
P 826 -191.863 71.8868 160.083
P 827 -257.236 40.738 188.584
P 828 -137.567 82.5033 141.519
P 829 -155.006 103.736 104.742
P 830 -399.955 68.9837 91.5584
P 831 -476.088 54.219 85.8676
P 832 -543.152 -76.4894 62.3718
P 833 -470.88 -93.9523 77.6461
P 834 -397.619 -111.415 81.5109
P 835 -342.953 -125.385 91.2116
P 836 -272.893 -134.481 97.6715
P 837 -126.66 -137.061 196.044
P 838 -110.57 -126.671 176.8
P 839 -101.676 -126.671 193.813
P 840 -107.416 -126.671 212.133
P 841 -124.429 -126.671 221.028
P 842 -142.749 -126.671 215.287
P 843 -151.644 -126.671 198.274
P 844 -145.903 -126.671 179.954
P 845 -128.89 -126.671 171.06
P 846 -153.874 -101.588 173.29
P 847 -161.992 -101.588 199.198
P 848 -149.413 -101.588 223.258
P 849 -129.814 -101.588 160.711
P 850 -103.906 -101.588 168.829
P 851 -91.3268 -101.588 192.889
P 852 -99.4452 -101.588 218.797
P 853 -123.505 -101.588 231.376
P 854 -543.152 42.9074 62.3718
P 855 -470.88 60.3703 77.6461
P 856 -397.619 77.8331 81.5109
P 857 -342.953 91.8034 91.2116
P 858 -272.893 100.899 97.6715
P 859 -101.676 93.0895 193.813
P 860 -110.57 93.0895 176.8
P 861 -126.66 103.479 196.044
P 862 -107.416 93.0895 212.133
P 863 -124.429 93.0895 221.028
P 864 -142.749 93.0895 215.287
P 865 -151.644 93.0895 198.274
P 866 -145.903 93.0895 179.954
P 867 -128.89 93.0895 171.06
P 868 -153.874 68.0061 173.29
P 869 -161.992 68.0061 199.198
P 870 -149.413 68.0061 223.258
P 871 -129.814 68.0061 160.711
P 872 -103.906 68.0061 168.829
P 873 -91.3268 68.0061 192.889
P 874 -99.4452 68.0061 218.797
P 875 -123.505 68.0061 231.376
P 876 -88.8383 34.7158 69.9514
P 877 -170.054 34.0347 82.6771
P 878 -85.1199 55.9117 87.3593
P 879 -171.76 50.5516 100.703
P 880 -95.1863 67.7838 97.0216
P 881 -173.303 56.9649 109.394
P 882 -123.411 -17.3371 14.6088
P 883 -204.627 -18.0182 27.3345
P 884 -170.054 -67.6167 82.6771
P 885 -88.8383 -66.9356 69.9514
P 886 -86.6696 -89.6911 87.5358
P 887 -171.76 -84.1336 100.703
P 888 -97.5107 -96.1044 97.2864
P 889 -173.303 -90.5469 109.394
P 890 580.77 -48.5548 -864.16
P 891 530.355 -16.6233 -908.591
P 892 545.223 -16.6233 -855.49
P 893 -1.3446 34.7158 97.7192
P 894 -6.58771 55.9117 109.113
P 895 -20.0859 67.7838 105.578
P 896 546.771 -47.8934 -944.189
P 897 530.355 -77.6891 -908.591
P 898 545.646 -75.7051 -854.981
P 899 -0.250732 -63.6329 97.5946
P 900 -7.54791 -89.6911 107.884
P 901 -21.5262 -96.1044 103.735
P 902 31.4697 33.615 93.9805
P 903 19.0281 -18.438 40.3217
P 904 44.1857 -19.5389 37.4553
P 905 33.6572 -68.0365 93.7313
P 906 -50.0116 12.0043 -26.9153
P 907 2.54919 12.0043 -10.2341
P 908 14.7878 -19.9272 -44.715
P 909 -70.7807 -19.2658 -60.1617
P 910 -50.0116 -49.0615 -26.9153
P 911 3.20624 -47.0774 -10.309
P 912 -13.6935 8.1782 -170.486
P 913 38.8673 8.1782 -153.805
P 914 51.106 -23.7533 -188.286
P 915 -34.4625 -23.092 -203.732
P 916 -13.6935 -52.8876 -170.486
P 917 39.5244 -50.9036 -153.88
P 918 22.4515 4.94323 -299.936
P 919 73.0766 4.94323 -278.073
P 920 88.7082 -26.9883 -311.154
P 921 5.11786 -26.3269 -335.096
P 922 22.4515 -56.1226 -299.936
P 923 73.7378 -54.1386 -278.081
P 924 93.5921 0.116764 -457.151
P 925 138.565 0.116764 -425.24
P 926 160.733 -31.8147 -454.348
P 927 83.9474 -31.1534 -495.146
P 928 93.5921 -60.949 -457.151
P 929 139.214 -58.965 -425.111
P 930 190.852 -4.25414 -583.117
P 931 243.036 -4.25414 -565.293
P 932 256.024 -36.1856 -599.498
P 933 170.813 -35.5243 -616.808
P 934 190.852 -65.3199 -583.117
P 935 243.695 -63.3359 -565.353
P 936 318.646 -9.92096 -762.284
P 937 350.584 -9.92096 -717.331
P 938 381.11 -41.8525 -737.503
P 939 322.068 -41.1911 -801.335
P 940 318.646 -70.9868 -762.284
P 941 351.154 -69.0027 -716.995
P 942 -242.307 -54.95 61.0943
P 943 -286.279 -18.0183 25.4465
P 944 -293.556 -47.4039 50.1447
P 945 -335.505 -18.0183 25.2191
P 946 -339.189 -40.5281 45.842
P 947 -388.453 -18.0183 22.5752
P 948 -387.56 -32.982 38.3645
P 949 -466.92 -18.0183 23.8459
P 950 -384.968 -43.0181 51.0458
P 951 -337.979 -52.456 56.5117
P 952 -316.094 -55.8939 61.0074
P 953 -272.072 -65.1274 73.0858
P 954 -223.387 -74.9563 86.5319
P 955 -247.699 -70.5879 81.2146
P 956 -292.781 -61.3543 65.4931
P 957 -242.307 21.368 61.0943
P 958 -293.556 13.8219 50.1447
P 959 -339.189 6.94614 45.842
P 960 -387.56 -0.599985 38.3645
P 961 -384.968 9.43609 51.0458
P 962 -337.979 18.874 56.5117
P 963 -316.094 22.3119 61.0074
P 964 -272.072 31.5454 73.0858
P 965 -223.387 41.3743 86.5319
P 966 -247.699 37.0059 81.2146
P 967 -292.781 27.7724 65.4931
P 968 -337.102 -54.2803 62.2445
P 969 -291.844 -65.2012 71.507
P 970 -248.865 -76.1221 87.5596
P 971 -215.094 -84.8589 95.6282
P 972 -337.102 20.6983 62.2445
P 973 -291.844 31.6192 71.507
P 974 -248.865 42.5401 87.5596
P 975 -215.094 51.2769 95.6282
T 0 0 1 2
T 1 0 3 1
T 2 0 4 3
T 3 0 5 4
T 4 0 6 5
T 5 0 7 6
T 6 0 8 7
T 7 0 9 8
T 8 0 10 9
T 9 0 11 10
T 10 0 12 11
T 11 0 2 12
T 12 2 13 14
T 13 2 1 13
T 14 1 15 13
T 15 1 3 15
T 16 3 16 15
T 17 3 4 16
T 18 4 17 16
T 19 4 5 17
T 20 5 18 17
T 21 5 6 18
T 22 6 19 18
T 23 6 7 19
T 24 7 20 19
T 25 7 8 20
T 26 8 21 20
T 27 8 9 21
T 28 9 22 21
T 29 9 10 22
T 30 10 23 22
T 31 10 11 23
T 32 11 24 23
T 33 11 12 24
T 34 12 14 24
T 35 12 2 14
T 36 14 25 26
T 37 13 27 25
T 38 13 28 27
T 39 15 29 28
T 40 15 30 29
T 41 16 31 30
T 42 16 32 31
T 43 17 33 32
T 44 17 34 33
T 45 17 18 34
T 46 18 35 34
T 47 18 19 35
T 48 19 36 35
T 49 19 20 36
T 50 20 37 36
T 51 20 21 37
T 52 21 38 37
T 53 21 22 38
T 54 22 39 38
T 55 22 23 39
T 56 23 40 39
T 57 23 24 40
T 58 24 41 40
T 59 14 26 41
T 60 25 14 13
T 61 28 13 15
T 62 30 15 16
T 63 32 16 17
T 64 41 24 14
T 65 42 40 41
T 66 43 26 25
T 67 44 27 28
T 68 45 29 30
T 69 46 31 32
T 70 46 32 33
T 71 47 48 49
T 72 47 50 48
T 73 47 51 50
T 74 47 52 51
T 75 47 53 52
T 76 47 54 53
T 77 47 55 54
T 78 47 56 55
T 79 47 57 56
T 80 47 58 57
T 81 47 59 58
T 82 47 49 59
T 83 49 60 61
T 84 49 48 60
T 85 48 62 60
T 86 48 50 62
T 87 50 63 62
T 88 50 51 63
T 89 51 64 63
T 90 51 52 64
T 91 52 65 64
T 92 52 53 65
T 93 53 66 65
T 94 53 54 66
T 95 54 67 66
T 96 54 55 67
T 97 55 68 67
T 98 55 56 68
T 99 56 69 68
T 100 56 57 69
T 101 57 70 69
T 102 57 58 70
T 103 58 71 70
T 104 58 59 71
T 105 59 61 71
T 106 59 49 61
T 107 61 72 73
T 108 60 74 72
T 109 60 75 74
T 110 62 76 75
T 111 62 77 76
T 112 63 78 77
T 113 63 79 78
T 114 64 80 79
T 115 64 81 80
T 116 64 65 81
T 117 65 82 81
T 118 65 66 82
T 119 66 83 82
T 120 66 67 83
T 121 67 84 83
T 122 67 68 84
T 123 68 85 84
T 124 68 69 85
T 125 69 86 85
T 126 69 70 86
T 127 70 87 86
T 128 70 71 87
T 129 71 88 87
T 130 61 73 88
T 131 72 61 60
T 132 75 60 62
T 133 77 62 63
T 134 79 63 64
T 135 88 71 61
T 136 89 87 88
T 137 90 73 72
T 138 91 74 75
T 139 92 76 77
T 140 93 78 79
T 141 93 79 80
T 142 94 95 96
T 143 94 96 97
T 144 94 97 98
T 145 94 98 99
T 146 94 99 100
T 147 94 100 101
T 148 94 101 102
T 149 94 102 103
T 150 94 103 104
T 151 94 104 105
T 152 94 105 106
T 153 94 106 107
T 154 94 107 108
T 155 94 108 95
T 156 95 109 110
T 157 95 110 96
T 158 96 110 111
T 159 96 111 97
T 160 112 113 114
T 161 112 114 115
T 162 115 114 116
T 163 115 116 117
T 164 117 116 118
T 165 117 118 119
T 166 119 118 120
T 167 119 120 121
T 168 121 120 122
T 169 121 122 123
T 170 123 122 124
T 171 123 124 125
T 172 103 126 127
T 173 103 127 104
T 174 104 127 128
T 175 104 128 105
T 176 105 128 129
T 177 105 129 106
T 178 106 129 130
T 179 106 130 107
T 180 107 130 131
T 181 107 131 108
T 182 108 131 109
T 183 108 109 95
T 184 109 132 133
T 185 109 133 110
T 186 110 133 134
T 187 110 134 111
T 188 111 134 135
T 189 111 135 136
T 190 136 135 137
T 191 136 137 138
T 192 138 137 139
T 193 138 139 140
T 194 140 139 141
T 195 140 141 142
T 196 142 141 143
T 197 142 143 144
T 198 144 143 145
T 199 144 145 126
T 200 126 145 146
T 201 126 146 127
T 202 127 146 147
T 203 127 147 128
T 204 128 147 148
T 205 128 148 129
T 206 129 148 149
T 207 129 149 130
T 208 130 149 150
T 209 130 150 131
T 210 131 150 132
T 211 131 132 109
T 212 132 151 152
T 213 132 152 133
T 214 133 152 153
T 215 133 153 134
T 216 134 153 154
T 217 134 154 135
T 218 135 154 155
T 219 135 155 137
T 220 137 155 156
T 221 137 156 139
T 222 139 156 157
T 223 139 157 141
T 224 141 157 158
T 225 141 158 143
T 226 143 158 159
T 227 143 159 145
T 228 145 159 160
T 229 145 160 146
T 230 146 160 161
T 231 146 161 147
T 232 147 161 162
T 233 147 162 148
T 234 148 162 163
T 235 148 163 149
T 236 149 163 164
T 237 149 164 150
T 238 150 164 151
T 239 150 151 132
T 240 151 165 166
T 241 151 166 152
T 242 152 166 167
T 243 152 167 153
T 244 153 167 168
T 245 153 168 154
T 246 154 168 169
T 247 154 169 155
T 248 155 169 170
T 249 155 170 156
T 250 156 170 171
T 251 156 171 157
T 252 157 171 172
T 253 157 172 158
T 254 158 172 173
T 255 158 173 159
T 256 159 173 174
T 257 159 174 160
T 258 160 174 175
T 259 160 175 161
T 260 161 175 176
T 261 161 176 162
T 262 162 176 177
T 263 162 177 163
T 264 163 177 178
T 265 163 178 164
T 266 164 178 165
T 267 164 165 151
T 268 165 179 180
T 269 165 180 166
T 270 166 180 181
T 271 166 181 167
T 272 167 181 182
T 273 167 182 168
T 274 168 182 183
T 275 168 183 169
T 276 169 183 184
T 277 169 184 170
T 278 170 184 185
T 279 170 185 171
T 280 171 185 186
T 281 171 186 172
T 282 172 186 187
T 283 172 187 173
T 284 173 187 188
T 285 173 188 174
T 286 174 188 189
T 287 174 189 175
T 288 175 189 190
T 289 175 190 176
T 290 176 190 191
T 291 176 191 177
T 292 177 191 192
T 293 177 192 178
T 294 178 192 179
T 295 178 179 165
T 296 193 192 191
T 297 193 191 190
T 298 193 190 189
T 299 193 189 188
T 300 193 188 187
T 301 193 187 186
T 302 193 186 185
T 303 193 185 184
T 304 193 184 183
T 305 193 183 182
T 306 193 182 181
T 307 193 181 180
T 308 193 180 179
T 309 193 179 192
T 310 112 97 111
T 311 111 113 112
T 312 113 111 136
T 313 136 114 113
T 314 115 98 97
T 315 97 112 115
T 316 114 136 138
T 317 138 116 114
T 318 117 99 98
T 319 98 115 117
T 320 116 138 140
T 321 140 118 116
T 322 119 100 99
T 323 99 117 119
T 324 118 140 142
T 325 142 120 118
T 326 121 101 100
T 327 100 119 121
T 328 120 142 144
T 329 144 122 120
T 330 123 102 101
T 331 101 121 123
T 332 122 144 126
T 333 126 124 122
T 334 124 126 103
T 335 103 125 124
T 336 125 103 102
T 337 102 123 125
T 338 194 195 196
T 339 197 198 199
T 340 197 199 195
T 341 195 199 200
T 342 195 200 201
T 343 201 200 202
T 344 198 203 204
T 345 198 204 199
T 346 199 204 205
T 347 199 205 200
T 348 206 205 207
T 349 208 200 209
T 350 203 210 211
T 351 203 211 204
T 352 204 211 212
T 353 204 212 205
T 354 212 213 214
T 355 212 214 207
T 356 210 215 216
T 357 210 216 211
T 358 211 216 217
T 359 211 217 212
T 360 212 217 218
T 361 212 218 213
T 362 219 197 195
T 363 220 200 221
T 364 196 195 201
T 365 205 206 209
T 366 221 200 208
T 367 202 200 220
T 368 201 222 196
T 369 202 223 201
T 370 220 223 202
T 371 220 221 224
T 372 208 225 221
T 373 206 226 208
T 374 214 227 206
T 375 207 205 212
T 376 207 214 206
T 377 209 200 205
T 378 209 206 208
T 379 194 228 195
T 380 229 230 231
T 381 232 233 234
T 382 230 232 234
T 383 235 232 230
T 384 236 235 230
T 385 237 235 236
T 386 238 239 233
T 387 232 238 233
T 388 240 238 232
T 389 235 240 232
T 390 241 240 242
T 391 243 235 244
T 392 245 246 239
T 393 238 245 239
T 394 247 245 238
T 395 240 247 238
T 396 248 249 247
T 397 241 248 247
T 398 250 251 246
T 399 245 250 246
T 400 252 250 245
T 401 247 252 245
T 402 253 252 247
T 403 249 253 247
T 404 230 234 254
T 405 255 235 256
T 406 236 230 229
T 407 243 242 240
T 408 244 235 255
T 409 256 235 237
T 410 229 257 236
T 411 236 258 237
T 412 237 258 256
T 413 259 255 256
T 414 255 260 244
T 415 244 261 242
T 416 242 262 248
T 417 247 240 241
T 418 242 248 241
T 419 240 235 243
T 420 244 242 243
T 421 230 263 231
T 422 264 265 266
T 423 267 268 269
T 424 265 267 269
T 425 270 267 265
T 426 271 270 265
T 427 272 270 271
T 428 273 274 268
T 429 267 273 268
T 430 275 273 267
T 431 270 275 267
T 432 276 275 277
T 433 278 270 279
T 434 280 281 274
T 435 273 280 274
T 436 282 280 273
T 437 275 282 273
T 438 283 284 282
T 439 276 283 282
T 440 285 286 281
T 441 280 285 281
T 442 287 285 280
T 443 282 287 280
T 444 288 287 282
T 445 284 288 282
T 446 265 269 289
T 447 290 270 291
T 448 271 265 264
T 449 278 277 275
T 450 279 270 290
T 451 291 270 272
T 452 264 292 271
T 453 271 293 272
T 454 272 293 291
T 455 294 290 291
T 456 290 295 279
T 457 279 296 277
T 458 277 297 283
T 459 282 275 276
T 460 277 283 276
T 461 275 270 278
T 462 279 277 278
T 463 265 298 266
T 464 299 300 301
T 465 302 303 304
T 466 302 304 300
T 467 300 304 305
T 468 300 305 306
T 469 306 305 307
T 470 303 308 309
T 471 303 309 304
T 472 304 309 310
T 473 304 310 305
T 474 311 310 312
T 475 313 305 314
T 476 308 315 316
T 477 308 316 309
T 478 309 316 317
T 479 309 317 310
T 480 317 318 319
T 481 317 319 312
T 482 315 320 321
T 483 315 321 316
T 484 316 321 322
T 485 316 322 317
T 486 317 322 323
T 487 317 323 318
T 488 324 302 300
T 489 325 305 326
T 490 301 300 306
T 491 310 311 314
T 492 326 305 313
T 493 307 305 325
T 494 306 327 301
T 495 307 328 306
T 496 325 328 307
T 497 325 326 329
T 498 313 330 326
T 499 311 331 313
T 500 319 332 311
T 501 312 310 317
T 502 312 319 311
T 503 314 305 310
T 504 314 311 313
T 505 299 333 300
T 506 334 335 336
T 507 334 337 335
T 508 334 338 337
T 509 334 339 338
T 510 334 340 339
T 511 334 341 340
T 512 334 342 341
T 513 334 336 342
T 514 336 343 344
T 515 336 335 343
T 516 335 345 343
T 517 335 337 345
T 518 337 346 345
T 519 337 338 346
T 520 338 347 346
T 521 338 339 347
T 522 339 348 347
T 523 339 340 348
T 524 340 349 348
T 525 340 341 349
T 526 341 350 349
T 527 341 342 350
T 528 342 344 350
T 529 342 336 344
T 530 344 351 352
T 531 344 343 351
T 532 343 353 351
T 533 343 345 353
T 534 345 354 353
T 535 345 346 354
T 536 346 355 354
T 537 346 347 355
T 538 347 356 355
T 539 347 348 356
T 540 348 357 356
T 541 348 349 357
T 542 349 358 357
T 543 349 350 358
T 544 350 352 358
T 545 350 344 352
T 546 359 357 358
T 547 359 356 357
T 548 359 355 356
T 549 359 354 355
T 550 359 353 354
T 551 359 351 353
T 552 359 352 351
T 553 359 358 352
T 554 360 361 362
T 555 360 362 363
T 556 360 363 364
T 557 360 364 365
T 558 360 365 366
T 559 360 366 367
T 560 360 367 368
T 561 360 368 361
T 562 369 370 371
T 563 369 371 372
T 564 362 373 374
T 565 362 374 363
T 566 363 374 375
T 567 363 375 364
T 568 376 377 378
T 569 376 378 379
T 570 380 381 382
T 571 380 382 383
T 572 384 385 386
T 573 384 386 387
T 574 367 388 389
T 575 367 389 368
T 576 368 389 390
T 577 368 390 361
T 578 390 391 392
T 579 390 392 373
T 580 373 392 393
T 581 373 393 374
T 582 374 393 394
T 583 374 394 375
T 584 375 394 395
T 585 375 395 396
T 586 396 395 397
T 587 396 397 398
T 588 398 397 399
T 589 398 399 388
T 590 388 399 400
T 591 388 400 389
T 592 389 400 391
T 593 389 391 390
T 594 401 400 399
T 595 401 399 397
T 596 401 397 395
T 597 401 395 394
T 598 401 394 393
T 599 401 393 392
T 600 401 392 391
T 601 401 391 400
T 602 402 365 396
T 603 396 403 402
T 604 403 396 398
T 605 398 404 403
T 606 404 398 366
T 607 366 405 404
T 608 405 366 365
T 609 365 402 405
T 610 380 402 403
T 611 403 381 380
T 612 381 403 404
T 613 404 382 381
T 614 382 404 405
T 615 405 383 382
T 616 383 405 402
T 617 402 380 383
T 618 406 366 398
T 619 398 407 406
T 620 407 398 388
T 621 388 408 407
T 622 408 388 367
T 623 367 409 408
T 624 409 367 366
T 625 366 406 409
T 626 384 406 407
T 627 407 385 384
T 628 385 407 408
T 629 408 386 385
T 630 386 408 409
T 631 409 387 386
T 632 387 409 406
T 633 406 384 387
T 634 410 364 375
T 635 375 411 410
T 636 411 375 396
T 637 396 412 411
T 638 412 396 365
T 639 365 413 412
T 640 413 365 364
T 641 364 410 413
T 642 376 410 411
T 643 411 377 376
T 644 377 411 412
T 645 412 378 377
T 646 378 412 413
T 647 413 379 378
T 648 379 413 410
T 649 410 376 379
T 650 414 361 390
T 651 390 415 414
T 652 415 390 373
T 653 373 416 415
T 654 416 373 362
T 655 362 417 416
T 656 417 362 361
T 657 361 414 417
T 658 369 414 415
T 659 415 370 369
T 660 370 415 416
T 661 416 371 370
T 662 371 416 417
T 663 417 372 371
T 664 372 417 414
T 665 414 369 372
T 666 418 419 420
T 667 418 420 421
T 668 419 422 423
T 669 419 423 420
T 670 422 424 425
T 671 422 425 423
T 672 424 426 427
T 673 424 427 425
T 674 426 428 429
T 675 426 429 427
T 676 428 418 421
T 677 428 421 429
T 678 430 431 432
T 679 430 432 433
T 680 430 433 434
T 681 430 434 435
T 682 430 435 436
T 683 430 436 437
T 684 430 437 438
T 685 430 438 431
T 686 431 439 440
T 687 431 440 432
T 688 432 440 441
T 689 432 441 433
T 690 433 441 442
T 691 433 442 434
T 692 434 442 443
T 693 434 443 435
T 694 435 443 444
T 695 435 444 436
T 696 436 444 445
T 697 436 445 437
T 698 437 445 446
T 699 437 446 438
T 700 438 446 439
T 701 438 439 431
T 702 439 447 448
T 703 439 448 440
T 704 440 448 449
T 705 440 449 441
T 706 441 449 450
T 707 441 450 442
T 708 442 450 451
T 709 442 451 443
T 710 443 451 452
T 711 443 452 444
T 712 444 452 453
T 713 444 453 445
T 714 445 453 454
T 715 445 454 446
T 716 446 454 447
T 717 446 447 439
T 718 455 454 453
T 719 455 453 452
T 720 455 452 451
T 721 455 451 450
T 722 455 450 449
T 723 455 449 448
T 724 455 448 447
T 725 455 447 454
T 726 456 457 458
T 727 456 458 459
T 728 457 460 461
T 729 457 461 458
T 730 460 462 463
T 731 460 463 461
T 732 462 464 465
T 733 462 465 463
T 734 464 466 467
T 735 464 467 465
T 736 466 456 459
T 737 466 459 467
T 738 468 469 470
T 739 471 468 470
T 740 472 471 470
T 741 473 472 470
T 742 474 473 470
T 743 475 474 470
T 744 476 475 470
T 745 469 476 470
T 746 477 478 479
T 747 480 477 479
T 748 481 482 468
T 749 471 481 468
T 750 483 481 471
T 751 472 483 471
T 752 484 485 486
T 753 487 484 486
T 754 488 489 490
T 755 491 488 490
T 756 492 493 494
T 757 495 492 494
T 758 496 497 475
T 759 476 496 475
T 760 498 496 476
T 761 469 498 476
T 762 499 500 498
T 763 482 499 498
T 764 501 499 482
T 765 481 501 482
T 766 502 501 481
T 767 483 502 481
T 768 503 502 483
T 769 504 503 483
T 770 505 503 504
T 771 506 505 504
T 772 507 505 506
T 773 497 507 506
T 774 508 507 497
T 775 496 508 497
T 776 500 508 496
T 777 498 500 496
T 778 507 508 509
T 779 505 507 509
T 780 503 505 509
T 781 502 503 509
T 782 501 502 509
T 783 499 501 509
T 784 500 499 509
T 785 508 500 509
T 786 504 473 510
T 787 510 511 504
T 788 506 504 511
T 789 511 512 506
T 790 474 506 512
T 791 512 513 474
T 792 473 474 513
T 793 513 510 473
T 794 511 510 490
T 795 490 489 511
T 796 512 511 489
T 797 489 488 512
T 798 513 512 488
T 799 488 491 513
T 800 510 513 491
T 801 491 490 510
T 802 506 474 514
T 803 514 515 506
T 804 497 506 515
T 805 515 516 497
T 806 475 497 516
T 807 516 517 475
T 808 474 475 517
T 809 517 514 474
T 810 515 514 494
T 811 494 493 515
T 812 516 515 493
T 813 493 492 516
T 814 517 516 492
T 815 492 495 517
T 816 514 517 495
T 817 495 494 514
T 818 483 472 518
T 819 518 519 483
T 820 504 483 519
T 821 519 520 504
T 822 473 504 520
T 823 520 521 473
T 824 472 473 521
T 825 521 518 472
T 826 519 518 486
T 827 486 485 519
T 828 520 519 485
T 829 485 484 520
T 830 521 520 484
T 831 484 487 521
T 832 518 521 487
T 833 487 486 518
T 834 498 469 522
T 835 522 523 498
T 836 482 498 523
T 837 523 524 482
T 838 468 482 524
T 839 524 525 468
T 840 469 468 525
T 841 525 522 469
T 842 523 522 479
T 843 479 478 523
T 844 524 523 478
T 845 478 477 524
T 846 525 524 477
T 847 477 480 525
T 848 522 525 480
T 849 480 479 522
T 850 526 527 528
T 851 529 526 528
T 852 530 531 527
T 853 526 530 527
T 854 532 533 531
T 855 530 532 531
T 856 534 535 533
T 857 532 534 533
T 858 536 537 535
T 859 534 536 535
T 860 529 528 537
T 861 536 529 537
T 862 538 539 540
T 863 541 538 540
T 864 542 541 540
T 865 543 542 540
T 866 544 543 540
T 867 545 544 540
T 868 546 545 540
T 869 539 546 540
T 870 547 548 539
T 871 538 547 539
T 872 549 547 538
T 873 541 549 538
T 874 550 549 541
T 875 542 550 541
T 876 551 550 542
T 877 543 551 542
T 878 552 551 543
T 879 544 552 543
T 880 553 552 544
T 881 545 553 544
T 882 554 553 545
T 883 546 554 545
T 884 548 554 546
T 885 539 548 546
T 886 555 556 548
T 887 547 555 548
T 888 557 555 547
T 889 549 557 547
T 890 558 557 549
T 891 550 558 549
T 892 559 558 550
T 893 551 559 550
T 894 560 559 551
T 895 552 560 551
T 896 561 560 552
T 897 553 561 552
T 898 540 561 553
T 899 554 540 553
T 900 556 540 554
T 901 548 556 554
T 902 561 540 539
T 903 560 561 539
T 904 559 560 539
T 905 558 559 539
T 906 557 558 539
T 907 555 557 539
T 908 556 555 539
T 909 540 556 539
T 910 562 563 564
T 911 562 565 563
T 912 562 566 565
T 913 562 567 566
T 914 562 568 567
T 915 562 569 568
T 916 562 570 569
T 917 562 564 570
T 918 564 571 572
T 919 564 563 571
T 920 563 573 571
T 921 563 565 573
T 922 565 574 573
T 923 565 566 574
T 924 566 575 574
T 925 566 567 575
T 926 567 576 575
T 927 567 568 576
T 928 568 577 576
T 929 568 569 577
T 930 569 578 577
T 931 569 570 578
T 932 570 572 578
T 933 570 564 572
T 934 572 579 580
T 935 572 571 579
T 936 571 581 579
T 937 571 573 581
T 938 573 582 581
T 939 573 574 582
T 940 574 583 582
T 941 574 575 583
T 942 575 584 583
T 943 575 576 584
T 944 576 585 584
T 945 576 577 585
T 946 577 586 585
T 947 577 578 586
T 948 578 580 586
T 949 578 572 580
T 950 587 585 586
T 951 587 584 585
T 952 587 583 584
T 953 587 582 583
T 954 587 581 582
T 955 587 579 581
T 956 587 580 579
T 957 587 586 580
T 958 588 589 590
T 959 591 588 590
T 960 592 593 589
T 961 588 592 589
T 962 594 595 593
T 963 592 594 593
T 964 596 597 595
T 965 594 596 595
T 966 598 599 597
T 967 596 598 597
T 968 591 590 599
T 969 598 591 599
T 970 600 601 602
T 971 601 600 603
T 972 601 604 602
T 973 604 605 602
T 974 606 607 608
T 975 608 607 609
T 976 607 610 609
T 977 607 611 610
T 978 611 612 610
T 979 612 613 610
T 980 614 615 616
T 981 614 617 615
T 982 615 617 618
T 983 617 619 618
T 984 618 619 620
T 985 621 622 606
T 986 621 623 622
T 987 622 623 624
T 988 623 625 624
T 989 624 625 626
T 990 627 628 629
T 991 629 628 630
T 992 630 628 631
T 993 631 632 630
T 994 631 633 632
T 995 633 634 632
T 996 635 627 629
T 997 635 629 636
T 998 635 637 638
T 999 637 635 636
T 1000 637 636 639
T 1001 636 629 630
T 1002 630 640 636
T 1003 636 640 639
T 1004 639 640 641
T 1005 640 630 632
T 1006 632 642 640
T 1007 640 642 641
T 1008 641 642 643
T 1009 642 644 643
T 1010 643 644 645
T 1011 644 646 645
T 1012 645 646 647
T 1013 648 634 633
T 1014 648 649 634
T 1015 648 650 649
T 1016 648 651 650
T 1017 652 651 648
T 1018 652 653 651
T 1019 654 653 652
T 1020 646 655 647
T 1021 646 656 655
T 1022 656 657 655
T 1023 657 658 655
T 1024 659 660 651
T 1025 653 659 651
T 1026 651 660 650
T 1027 659 661 660
T 1028 661 662 660
T 1029 661 663 662
T 1030 662 663 664
T 1031 663 665 664
T 1032 664 665 666
T 1033 634 642 632
T 1034 634 644 642
T 1035 649 644 634
T 1036 650 644 649
T 1037 667 668 644
T 1038 650 667 644
T 1039 667 669 668
T 1040 668 669 670
T 1041 669 671 670
T 1042 670 671 672
T 1043 673 674 675
T 1044 674 673 676
T 1045 674 677 675
T 1046 677 678 675
T 1047 679 680 681
T 1048 680 679 682
T 1049 680 683 681
T 1050 683 684 681
T 1051 676 673 603
T 1052 603 600 682
T 1053 682 679 659
T 1054 682 659 653
T 1055 685 653 686
T 1056 686 653 654
T 1057 685 603 653
T 1058 603 682 653
T 1059 685 676 603
T 1060 687 688 689
T 1061 687 690 688
T 1062 690 691 688
T 1063 691 692 688
T 1064 693 694 695
T 1065 695 694 696
T 1066 694 697 696
T 1067 696 697 698
T 1068 695 696 690
T 1069 695 690 687
T 1070 695 687 644
T 1071 699 700 701
T 1072 702 701 700
T 1073 699 703 700
T 1074 699 704 703
T 1075 705 706 707
T 1076 708 706 705
T 1077 708 709 706
T 1078 709 710 706
T 1079 709 711 710
T 1080 709 712 711
T 1081 713 714 715
T 1082 714 716 715
T 1083 717 716 714
T 1084 717 718 716
T 1085 719 718 717
T 1086 707 720 721
T 1087 720 722 721
T 1088 723 722 720
T 1089 723 724 722
T 1090 725 724 723
T 1091 726 727 728
T 1092 729 727 726
T 1093 730 727 729
T 1094 729 731 730
T 1095 731 732 730
T 1096 731 733 732
T 1097 726 728 734
T 1098 735 726 734
T 1099 638 637 734
T 1100 735 734 637
T 1101 639 735 637
T 1102 729 726 735
T 1103 735 736 729
T 1104 639 736 735
T 1105 641 736 639
T 1106 731 729 736
T 1107 736 737 731
T 1108 641 737 736
T 1109 643 737 641
T 1110 643 738 737
T 1111 645 738 643
T 1112 645 739 738
T 1113 647 739 645
T 1114 732 733 740
T 1115 733 741 740
T 1116 741 742 740
T 1117 742 743 740
T 1118 740 743 744
T 1119 743 745 744
T 1120 744 745 746
T 1121 647 655 739
T 1122 655 747 739
T 1123 655 748 747
T 1124 655 749 748
T 1125 743 750 751
T 1126 743 751 745
T 1127 742 750 743
T 1128 750 752 751
T 1129 750 753 752
T 1130 753 754 752
T 1131 755 754 753
T 1132 755 756 754
T 1133 757 756 755
T 1134 731 737 733
T 1135 737 738 733
T 1136 733 738 741
T 1137 741 738 742
T 1138 738 758 759
T 1139 738 759 742
T 1140 758 760 759
T 1141 761 760 758
T 1142 761 762 760
T 1143 763 762 761
T 1144 764 765 766
T 1145 767 766 765
T 1146 764 768 765
T 1147 764 769 768
T 1148 770 771 772
T 1149 773 772 771
T 1150 770 774 771
T 1151 770 775 774
T 1152 702 766 767
T 1153 773 701 702
T 1154 751 772 773
T 1155 745 751 773
T 1156 776 745 777
T 1157 746 745 776
T 1158 745 702 777
T 1159 745 773 702
T 1160 702 767 777
T 1161 778 779 780
T 1162 779 781 780
T 1163 779 782 781
T 1164 779 783 782
T 1165 784 785 786
T 1166 787 785 784
T 1167 787 788 785
T 1168 789 788 787
T 1169 781 787 784
T 1170 780 781 784
T 1171 738 780 784
T 1172 606 608 634
T 1173 695 687 649
T 1174 616 707 649
T 1175 708 616 660
T 1176 713 707 705
T 1177 790 791 792
T 1178 791 793 792
T 1179 794 791 790
T 1180 794 795 791
T 1181 796 797 798
T 1182 798 799 796
T 1183 800 799 798
T 1184 800 801 799
T 1185 800 802 801
T 1186 802 803 801
T 1187 802 790 803
T 1188 790 792 803
T 1189 792 793 803
T 1190 793 804 803
T 1191 805 801 803
T 1192 806 799 801
T 1193 807 796 808
T 1194 796 809 810
T 1195 796 811 797
T 1196 796 810 811
T 1197 796 812 813
T 1198 796 813 809
T 1199 812 654 813
T 1200 812 686 654
T 1201 807 812 796
T 1202 808 796 799
T 1203 814 808 799
T 1204 806 814 799
T 1205 815 806 801
T 1206 805 815 801
T 1207 804 805 803
T 1208 798 797 816
T 1209 816 817 798
T 1210 798 817 800
T 1211 817 818 800
T 1212 818 802 800
T 1213 818 819 802
T 1214 819 790 802
T 1215 819 794 790
T 1216 819 795 794
T 1217 819 820 795
T 1218 819 818 821
T 1219 818 817 822
T 1220 823 816 824
T 1221 825 826 816
T 1222 797 827 816
T 1223 827 825 816
T 1224 828 829 816
T 1225 826 828 816
T 1226 828 746 829
T 1227 746 776 829
T 1228 816 829 824
T 1229 817 816 823
T 1230 817 823 830
T 1231 817 830 822
T 1232 818 822 831
T 1233 818 831 821
T 1234 819 821 820
T 1235 832 815 805
T 1236 833 814 806
T 1237 834 808 814
T 1238 808 835 807
T 1239 836 812 807
T 1240 810 627 635
T 1241 635 811 810
T 1242 837 838 839
T 1243 837 839 840
T 1244 837 840 841
T 1245 837 841 842
T 1246 837 842 843
T 1247 837 843 844
T 1248 837 844 845
T 1249 837 845 838
T 1250 809 846 810
T 1251 810 846 847
T 1252 810 847 627
T 1253 627 847 848
T 1254 813 846 809
T 1255 813 849 846
T 1256 813 654 849
T 1257 654 652 850
T 1258 654 850 849
T 1259 850 652 851
T 1260 652 648 851
T 1261 851 648 852
T 1262 852 648 633
T 1263 633 853 852
T 1264 853 633 631
T 1265 631 848 853
T 1266 631 628 848
T 1267 628 627 848
T 1268 797 811 638
T 1269 811 635 638
T 1270 835 836 807
T 1271 834 835 808
T 1272 833 834 814
T 1273 833 806 815
T 1274 832 833 815
T 1275 832 805 804
T 1276 793 832 804
T 1277 821 831 854
T 1278 822 830 855
T 1279 830 823 856
T 1280 824 857 823
T 1281 824 829 858
T 1282 734 728 825
T 1283 825 827 734
T 1284 859 860 861
T 1285 862 859 861
T 1286 863 862 861
T 1287 864 863 861
T 1288 865 864 861
T 1289 866 865 861
T 1290 867 866 861
T 1291 860 867 861
T 1292 825 868 826
T 1293 869 868 825
T 1294 728 869 825
T 1295 870 869 728
T 1296 826 868 828
T 1297 868 871 828
T 1298 871 746 828
T 1299 872 744 746
T 1300 871 872 746
T 1301 873 744 872
T 1302 873 740 744
T 1303 874 740 873
T 1304 732 740 874
T 1305 874 875 732
T 1306 730 732 875
T 1307 875 870 730
T 1308 870 727 730
T 1309 870 728 727
T 1310 638 827 797
T 1311 638 734 827
T 1312 824 858 857
T 1313 823 857 856
T 1314 830 856 855
T 1315 831 822 855
T 1316 831 855 854
T 1317 820 821 854
T 1318 820 854 795
T 1319 838 850 851
T 1320 838 851 839
T 1321 839 851 852
T 1322 839 852 840
T 1323 840 852 853
T 1324 840 853 841
T 1325 841 853 848
T 1326 841 848 842
T 1327 842 848 847
T 1328 842 847 843
T 1329 843 847 846
T 1330 843 846 844
T 1331 844 846 849
T 1332 844 849 845
T 1333 845 849 850
T 1334 845 850 838
T 1335 873 872 860
T 1336 859 873 860
T 1337 874 873 859
T 1338 862 874 859
T 1339 875 874 862
T 1340 863 875 862
T 1341 870 875 863
T 1342 864 870 863
T 1343 869 870 864
T 1344 865 869 864
T 1345 868 869 865
T 1346 866 868 865
T 1347 871 868 866
T 1348 867 871 866
T 1349 872 871 867
T 1350 860 872 867
T 1351 876 877 878
T 1352 878 877 879
T 1353 879 880 878
T 1354 880 879 881
T 1355 876 882 877
T 1356 882 883 877
T 1357 882 884 883
T 1358 882 885 884
T 1359 885 886 884
T 1360 886 887 884
T 1361 886 888 887
T 1362 888 889 887
T 1363 890 891 892
T 1364 893 876 878
T 1365 893 878 894
T 1366 894 878 895
T 1367 895 878 880
T 1368 890 896 891
T 1369 890 897 896
T 1370 890 898 897
T 1371 899 900 885
T 1372 900 886 885
T 1373 900 901 886
T 1374 901 888 886
T 1375 902 893 894
T 1376 902 903 893
T 1377 902 904 903
T 1378 904 905 903
T 1379 905 899 903
T 1380 905 900 899
T 1381 906 876 893
T 1382 893 907 906
T 1383 907 893 903
T 1384 903 908 907
T 1385 909 882 876
T 1386 876 906 909
T 1387 910 885 882
T 1388 882 909 910
T 1389 908 903 899
T 1390 899 911 908
T 1391 911 899 885
T 1392 885 910 911
T 1393 912 906 907
T 1394 907 913 912
T 1395 913 907 908
T 1396 908 914 913
T 1397 915 909 906
T 1398 906 912 915
T 1399 916 910 909
T 1400 909 915 916
T 1401 914 908 911
T 1402 911 917 914
T 1403 917 911 910
T 1404 910 916 917
T 1405 918 912 913
T 1406 913 919 918
T 1407 919 913 914
T 1408 914 920 919
T 1409 921 915 912
T 1410 912 918 921
T 1411 922 916 915
T 1412 915 921 922
T 1413 920 914 917
T 1414 917 923 920
T 1415 923 917 916
T 1416 916 922 923
T 1417 924 918 919
T 1418 919 925 924
T 1419 925 919 920
T 1420 920 926 925
T 1421 927 921 918
T 1422 918 924 927
T 1423 928 922 921
T 1424 921 927 928
T 1425 926 920 923
T 1426 923 929 926
T 1427 929 923 922
T 1428 922 928 929
T 1429 930 924 925
T 1430 925 931 930
T 1431 931 925 926
T 1432 926 932 931
T 1433 933 927 924
T 1434 924 930 933
T 1435 934 928 927
T 1436 927 933 934
T 1437 932 926 929
T 1438 929 935 932
T 1439 935 929 928
T 1440 928 934 935
T 1441 936 930 931
T 1442 931 937 936
T 1443 937 931 932
T 1444 932 938 937
T 1445 939 933 930
T 1446 930 936 939
T 1447 940 934 933
T 1448 933 939 940
T 1449 938 932 935
T 1450 935 941 938
T 1451 941 935 934
T 1452 934 940 941
T 1453 891 936 937
T 1454 937 892 891
T 1455 892 937 938
T 1456 938 890 892
T 1457 896 939 936
T 1458 936 891 896
T 1459 897 940 939
T 1460 939 896 897
T 1461 890 938 941
T 1462 941 898 890
T 1463 898 941 940
T 1464 940 897 898
T 1465 884 942 883
T 1466 883 942 943
T 1467 942 944 943
T 1468 944 945 943
T 1469 944 946 945
T 1470 946 947 945
T 1471 946 948 947
T 1472 948 949 947
T 1473 948 950 949
T 1474 946 950 948
T 1475 946 951 950
T 1476 946 944 952
T 1477 944 942 953
T 1478 954 884 887
T 1479 942 884 954
T 1480 942 954 955
T 1481 942 955 953
T 1482 944 953 956
T 1483 944 956 952
T 1484 946 952 951
T 1485 883 957 877
T 1486 943 957 883
T 1487 943 958 957
T 1488 943 945 958
T 1489 945 959 958
T 1490 945 947 959
T 1491 947 960 959
T 1492 947 949 960
T 1493 949 961 960
T 1494 960 961 959
T 1495 961 962 959
T 1496 963 958 959
T 1497 964 957 958
T 1498 879 877 965
T 1499 965 877 957
T 1500 966 965 957
T 1501 964 966 957
T 1502 967 964 958
T 1503 963 967 958
T 1504 962 963 959
T 1505 952 956 968
T 1506 953 955 969
T 1507 955 954 970
T 1508 887 971 954
T 1509 887 889 971
T 1510 954 971 970
T 1511 955 970 969
T 1512 956 953 969
T 1513 956 969 968
T 1514 951 952 968
T 1515 951 968 950
T 1516 972 967 963
T 1517 973 966 964
T 1518 974 965 966
T 1519 965 975 879
T 1520 975 881 879
T 1521 974 975 965
T 1522 973 974 966
T 1523 973 964 967
T 1524 972 973 967
T 1525 972 963 962
T 1526 961 972 962
B11 1 false 4 1250 1251 1254 1329 
B11 2 false 6 1248 1255 1256 1330 1331 1332 
B11 3 false 4 1292 1293 1296 1345 
B11 4 false 6 1290 1297 1298 1346 1347 1348 
B11 5 false 5 994 1321 1322 1323 1324 
B11 6 false 5 1172 1261 1262 1263 1264 
B10 1 false 2 570 571 
B10 2 false 8 610 611 612 613 614 615 616 617 
B10 3 false 5 602 603 637 638 639 
B10 4 false 5 634 635 636 640 641 
B10 5 false 4 559 588 589 595 
B10 6 false 6 560 574 575 590 591 594 
B10 7 false 8 555 556 566 567 582 583 598 599 
B10 8 false 4 564 565 580 581 
B10 9 false 5 554 578 579 600 601 
B10 10 false 5 561 576 577 592 593 
B10 11 false 2 754 755 
B10 12 false 8 794 795 796 797 798 799 800 801 
B10 13 false 5 786 787 821 822 823 
B10 14 false 5 818 819 820 824 825 
B10 15 false 4 743 772 773 779 
B10 16 false 6 744 758 759 774 775 778 
B10 17 false 5 745 760 761 776 777 
B10 18 false 5 738 762 763 784 785 
B10 19 false 8 739 740 750 751 766 767 782 783 
B10 20 false 4 748 749 764 765 
B10 21 false 7 514 515 528 529 530 531 545 
B10 22 false 4 516 517 532 533 
B10 23 false 5 348 365 374 376 503 
B10 24 false 5 347 377 475 499 504 
B10 25 false 8 230 231 546 549 550 551 552 553 
B10 26 false 2 228 229 
B10 27 false 8 212 239 950 953 954 955 956 957 
B10 28 false 3 213 214 215 
B10 29 false 5 419 432 449 458 460 
B10 30 false 5 391 415 420 431 461 
B10 31 false 4 172 338 364 368 
B10 32 false 8 173 174 175 176 177 178 179 379 
B10 33 false 3 422 448 452 
B10 34 false 9 156 157 158 159 180 181 182 183 463 
B10 35 false 7 1045 1399 1400 1401 1402 1403 1404 
B10 36 false 3 1043 1044 1388 
B10 37 false 7 971 981 1048 1051 1052 1053 1059 
B10 38 false 7 1378 1379 1387 1389 1390 1391 1392 
B10 39 false 6 972 973 983 1046 1049 1050 
B10 40 false 5 970 982 986 987 1047 
B10 41 false 8 1072 1149 1152 1381 1382 1384 1385 1386 
B10 42 false 7 1082 1153 1154 1160 1376 1377 1383 
B10 43 false 5 1194 1196 1201 1507 1510 
B10 44 false 6 1197 1198 1239 1478 1508 1509 
B10 45 false 5 1199 1200 1360 1361 1362 
B10 46 true 1 2 
B10 47 false 5 1221 1223 1228 1518 1521 
B10 48 false 6 1224 1225 1281 1498 1519 1520 
B10 49 false 5 1226 1227 1352 1353 1354 
B10 50 true 3 4 
B10 51 false 6 996 997 999 1000 1240 1241 
B10 52 false 6 990 991 1001 1002 1003 1252 
B10 53 false 9 1245 1246 1247 1253 1267 1325 1326 1327 1328 
B10 54 false 6 992 993 1004 1005 1265 1266 
B10 55 false 6 1097 1098 1100 1101 1282 1283 
B10 56 false 6 1091 1092 1102 1103 1104 1294 
B10 57 false 9 1287 1288 1289 1295 1309 1341 1342 1343 1344 
B10 58 false 6 1093 1094 1105 1106 1307 1308 
B10 59 false 7 1015 1016 1017 1242 1243 1244 1249 
B10 60 false 5 995 1006 1013 1014 1033 
B10 61 false 8 1257 1258 1259 1260 1319 1320 1333 1334 
B10 62 true 5 6 
B10 63 false 4 1156 1157 1158 1367 
B10 64 false 6 1126 1155 1159 1364 1365 1366 
B10 65 false 8 1120 1299 1300 1301 1302 1335 1349 1350 
B10 66 false 5 1081 1086 1117 1118 1119 
B10 67 false 9 1176 1303 1304 1305 1336 1337 1338 1339 1340 
B10 68 false 7 1114 1115 1116 1284 1285 1286 1291 
B10 69 false 4 1024 1027 1064 1380 
B10 70 false 6 974 975 980 1026 1038 1175 
B10 71 false 4 976 977 1028 1065 
B10 72 false 7 1011 1012 1037 1060 1061 1068 1069 
B10 73 false 4 1077 1078 1129 1166 
B10 74 false 7 1112 1113 1138 1161 1162 1169 1170 
B10 75 false 4 34 35 105 106 
B10 76 false 8 0 1 71 72 82 127 128 301 
B10 77 false 9 8 9 31 101 102 125 126 1369 1370 
B10 78 false 7 27 29 30 98 99 100 124 
B10 79 false 2 1457 1458 
B10 80 false 9 77 78 93 94 95 96 97 1363 1368 
B10 81 false 6 2 3 19 44 115 306 
B10 82 false 7 4 20 21 45 116 304 305 
B10 83 false 7 5 6 7 22 23 117 118 
B10 84 false 4 24 25 119 120 
B9 1 false 2 568 569 
B9 2 true 1 2 
B9 3 false 8 642 643 644 645 646 647 648 649 
B9 4 true 3 4 
B9 5 false 2 756 757 
B9 6 false 8 810 811 812 813 814 815 816 817 
B9 7 false 6 604 605 606 607 608 609 
B9 8 false 8 618 619 620 621 622 623 624 625 
B9 9 false 8 557 558 584 585 586 587 596 597 
B9 10 true 5 6 
B9 11 true 7 8 
B9 12 true 9 10 
B9 13 false 8 658 659 660 661 662 663 664 665 
B9 14 false 2 562 563 
B9 15 false 2 572 573 
B9 16 false 8 626 627 628 629 630 631 632 633 
B9 17 false 8 802 803 804 805 806 807 808 809 
B9 18 false 6 788 789 790 791 792 793 
B9 19 true 11 12 
B9 20 false 2 752 753 
B9 21 true 13 14 
B9 22 false 8 826 827 828 829 830 831 832 833 
B9 23 true 15 16 
B9 24 false 8 741 742 768 769 770 771 780 781 
B9 25 true 17 18 
B9 26 true 19 20 
B9 27 false 8 842 843 844 845 846 847 848 849 
B9 28 false 2 746 747 
B9 29 false 6 683 684 696 697 698 699 
B9 30 false 6 678 685 686 687 700 701 
B9 31 false 6 681 682 692 693 694 695 
B9 32 false 6 679 680 688 689 690 691 
B9 33 false 6 712 713 714 715 718 719 
B9 34 false 6 702 703 716 717 724 725 
B9 35 false 6 708 709 710 711 720 721 
B9 36 false 6 704 705 706 707 722 723 
B9 37 false 6 896 897 898 899 902 903 
B9 38 false 7 866 867 868 880 881 882 883 
B9 39 false 7 870 886 887 900 901 908 909 
B9 40 false 6 862 863 869 871 884 885 
B9 41 false 6 892 893 894 895 904 905 
B9 42 false 5 865 876 877 878 879 
B9 43 false 6 888 889 890 891 906 907 
B9 44 false 5 864 872 873 874 875 
B9 45 false 8 36 59 60 61 108 109 132 136 
B9 46 false 3 65 287 288 
B9 47 false 6 83 84 85 107 130 131 
B9 48 false 7 12 13 14 297 298 299 300 
B9 49 false 4 522 523 524 525 
B9 50 false 6 538 539 540 541 547 548 
B9 51 false 4 258 259 360 361 
B9 52 false 8 256 257 358 359 480 481 487 501 
B9 53 false 7 39 40 41 42 68 69 139 
B9 54 false 6 62 70 110 111 140 141 
B9 55 false 7 15 16 112 133 296 308 309 
B9 56 false 7 17 18 86 87 88 89 307 
B9 57 false 4 240 241 444 445 
B9 58 false 8 242 243 396 397 403 417 442 443 
B9 59 false 5 526 527 542 543 544 
B9 60 false 8 232 233 234 235 518 519 534 535 
B9 61 true 21 22 
B9 62 false 2 206 207 
B9 63 false 8 236 237 238 930 931 946 947 948 
B9 64 false 4 922 923 938 939 
B9 65 false 8 920 921 932 933 934 936 937 949 
B9 66 false 4 208 918 919 935 
B9 67 true 23 24 
B9 68 true 25 26 
B9 69 false 6 349 373 378 489 492 498 
B9 70 false 6 363 366 372 469 493 497 
B9 71 true 27 28 
B9 72 true 29 30 
B9 73 false 6 405 408 414 433 457 462 
B9 74 false 6 385 409 413 447 450 456 
B9 75 false 9 341 342 343 367 369 370 371 495 496 
B9 76 false 6 200 201 202 203 204 205 
B9 77 true 31 32 
B9 78 false 4 150 151 152 153 
B9 79 false 7 184 185 186 187 209 210 211 
B9 80 false 9 411 412 425 426 427 451 453 454 455 
B9 81 true 33 34 
B9 82 false 4 142 143 154 155 
B9 83 false 6 1470 1471 1474 1475 1484 1515 
B9 84 false 6 1490 1491 1494 1495 1504 1526 
B9 85 false 9 1468 1469 1476 1482 1483 1505 1512 1513 1514 
B9 86 false 9 1488 1489 1496 1502 1503 1516 1523 1524 1525 
B9 87 false 6 1466 1467 1477 1480 1481 1506 
B9 88 false 6 1486 1487 1497 1500 1501 1517 
B9 89 false 4 1465 1479 1485 1499 
B9 90 false 6 1351 1355 1356 1357 1358 1359 
B9 91 false 8 1432 1433 1434 1435 1436 1437 1438 1440 
B9 92 false 5 1424 1429 1430 1431 1439 
B9 93 false 5 1420 1421 1422 1423 1428 
B9 94 false 6 1417 1418 1419 1425 1426 1427 
B9 95 false 4 1408 1409 1410 1412 
B9 96 false 8 1405 1406 1407 1411 1413 1414 1415 1416 
B9 97 true 35 36 
B9 98 true 37 38 
B9 99 true 39 40 
B9 100 false 7 978 979 984 988 989 1029 1030 
B9 101 false 9 1144 1145 1146 1393 1394 1395 1396 1397 1398 
B9 102 true 41 42 
B9 103 false 9 1071 1073 1074 1083 1084 1147 1148 1150 1151 
B9 104 false 7 1079 1080 1085 1089 1090 1130 1131 
B9 105 false 2 1187 1214 
B9 106 false 8 1185 1186 1191 1206 1212 1213 1218 1233 
B9 107 false 8 1183 1184 1192 1204 1205 1236 1272 1273 
B9 108 false 8 1210 1211 1219 1231 1232 1278 1314 1315 
B9 109 false 8 1193 1202 1203 1237 1238 1270 1271 1511 
B9 110 false 6 998 1181 1182 1195 1268 1269 
B9 111 false 8 1220 1229 1230 1279 1280 1312 1313 1522 
B9 112 false 6 1099 1208 1209 1222 1310 1311 
B9 113 true 43 44 
B9 114 true 45 46 
B9 115 true 47 48 
B9 116 true 49 50 
B9 117 true 51 52 
B9 118 true 53 54 
B9 119 true 55 56 
B9 120 true 57 58 
B9 121 false 9 985 1018 1019 1025 1054 1055 1056 1057 1058 
B9 122 true 59 60 
B9 123 true 61 62 
B9 124 false 7 1007 1008 1174 1371 1372 1373 1374 
B9 125 true 63 64 
B9 126 true 65 66 
B9 127 true 67 68 
B9 128 false 7 1095 1096 1107 1108 1109 1134 1306 
B9 129 true 69 70 
B9 130 false 7 1009 1010 1034 1035 1036 1070 1173 
B9 131 false 7 1087 1088 1125 1127 1128 1165 1375 
B9 132 false 9 1075 1076 1110 1111 1135 1136 1137 1139 1171 
B9 133 true 71 72 
B9 134 false 8 1020 1021 1039 1040 1062 1063 1066 1067 
B9 135 true 73 74 
B9 136 false 8 1121 1122 1140 1141 1163 1164 1167 1168 
B9 137 true 75 76 
B9 138 false 9 10 11 32 33 81 103 104 302 303 
B9 139 false 5 79 80 1459 1460 1464 
B9 140 true 77 78 
B9 141 false 5 56 57 282 283 484 
B9 142 false 6 54 55 280 281 482 483 
B9 143 false 7 73 74 75 76 90 91 92 
B9 144 true 79 80 
B9 145 true 81 82 
B9 146 true 83 84 
B9 147 false 5 46 47 274 275 276 
B9 148 false 5 272 273 398 399 400 
B9 149 false 6 28 52 53 123 278 279 
B9 150 false 8 26 48 49 50 51 121 122 277 
B9 151 false 6 310 311 313 316 328 329 
B9 152 false 7 317 320 321 324 325 335 336 
B8 1 true 1 2 
B8 2 true 3 4 
B8 3 true 5 6 
B8 4 true 7 8 
B8 5 true 9 10 
B8 6 true 11 12 
B8 7 false 8 650 651 652 653 654 655 656 657 
B8 8 true 13 14 
B8 9 true 15 16 
B8 10 true 17 18 
B8 11 true 19 20 
B8 12 true 21 22 
B8 13 true 23 24 
B8 14 true 25 26 
B8 15 false 8 834 835 836 837 838 839 840 841 
B8 16 true 27 28 
B8 17 true 29 30 
B8 18 true 31 32 
B8 19 true 33 34 
B8 20 true 35 36 
B8 21 true 37 38 
B8 22 true 39 40 
B8 23 true 41 42 
B8 24 true 43 44 
B8 25 false 9 37 38 66 67 137 138 289 290 291 
B8 26 true 45 46 
B8 27 false 8 58 64 129 135 284 285 286 486 
B8 28 true 47 48 
B8 29 true 49 50 
B8 30 false 8 260 261 262 263 520 521 536 537 
B8 31 true 51 52 
B8 32 false 7 354 355 375 474 491 500 502 
B8 33 true 53 54 
B8 34 false 6 268 269 292 293 294 295 
B8 35 true 55 56 
B8 36 false 8 43 63 113 114 134 270 271 402 
B8 37 false 9 264 265 266 267 928 929 944 945 951 
B8 38 false 9 924 925 926 927 940 941 942 943 952 
B8 39 true 57 58 
B8 40 false 7 390 407 416 418 438 439 459 
B8 41 false 8 506 507 508 509 510 511 512 513 
B8 42 false 8 910 911 912 913 914 915 916 917 
B8 43 true 59 60 
B8 44 true 61 62 
B8 45 true 63 64 
B8 46 true 65 66 
B8 47 true 67 68 
B8 48 true 69 70 
B8 49 true 71 72 
B8 50 true 73 74 
B8 51 true 75 76 
B8 52 true 77 78 
B8 53 true 79 80 
B8 54 true 81 82 
B8 55 false 4 1177 1178 1179 1180 
B8 56 false 8 1188 1189 1190 1215 1216 1217 1276 1318 
B8 57 false 8 1207 1234 1235 1274 1275 1277 1316 1317 
B8 58 false 4 1472 1473 1492 1493 
B8 59 true 83 84 
B8 60 true 85 86 
B8 61 true 87 88 
B8 62 true 89 90 
B8 63 false 5 1441 1445 1446 1447 1448 
B8 64 true 91 92 
B8 65 true 93 94 
B8 66 true 95 96 
B8 67 true 97 98 
B8 68 true 99 100 
B8 69 true 101 102 
B8 70 true 103 104 
B8 71 true 105 106 
B8 72 true 107 108 
B8 73 true 109 110 
B8 74 true 111 112 
B8 75 true 113 114 
B8 76 true 115 116 
B8 77 true 117 118 
B8 78 true 119 120 
B8 79 true 121 122 
B8 80 true 123 124 
B8 81 true 125 126 
B8 82 true 127 128 
B8 83 true 129 130 
B8 84 true 131 132 
B8 85 true 133 134 
B8 86 true 135 136 
B8 87 true 137 138 
B8 88 true 139 140 
B8 89 true 141 142 
B8 90 false 9 254 255 356 357 476 477 478 479 485 
B8 91 true 143 144 
B8 92 true 145 146 
B8 93 true 147 148 
B8 94 false 9 244 245 392 393 394 395 401 440 441 
B8 95 false 7 1442 1443 1444 1449 1450 1451 1452 
B8 96 false 7 1453 1454 1455 1456 1461 1462 1463 
B8 97 true 149 150 
B8 98 false 8 246 247 248 249 250 251 252 253 
B8 99 false 8 345 346 352 353 470 471 472 473 
B8 100 false 9 222 223 224 225 226 227 344 350 351 
B8 101 false 7 464 465 466 467 468 490 494 
B8 102 false 8 194 195 196 197 198 199 339 340 
B8 103 false 8 217 218 219 220 221 428 434 435 
B8 104 false 9 216 386 387 388 389 429 430 436 437 
B8 105 false 8 188 189 190 191 192 193 423 424 
B8 106 false 7 380 381 382 383 384 406 410 
B8 107 false 9 144 145 146 147 148 149 312 332 333 
B8 108 true 151 152 
B8 109 false 5 326 327 330 331 337 
B8 110 false 6 166 167 168 169 170 171 
B8 111 false 6 314 315 318 319 322 323 
B8 112 false 6 160 161 162 163 164 165 
B7 1 true 1 2 
B7 2 true 3 4 
B7 3 true 5 6 
B7 4 true 7 8 
B7 5 true 9 10 
B7 6 true 11 12 
B7 7 true 13 14 
B7 8 true 15 16 
B7 9 true 17 18 
B7 10 true 19 20 
B7 11 true 21 22 
B7 12 true 23 24 
B7 13 true 25 26 
B7 14 true 27 28 
B7 15 true 29 30 
B7 16 true 31 32 
B7 17 true 33 34 
B7 18 true 35 36 
B7 19 true 37 38 
B7 20 true 39 40 
B7 21 false 24 726 727 728 729 730 731 732 733 734 735 736 737 958 959 960 961 962 963 964 965 966 967 968 969 
B7 22 true 41 42 
B7 23 true 43 44 
B7 24 true 45 46 
B7 25 true 47 48 
B7 26 true 49 50 
B7 27 true 51 52 
B7 28 true 53 54 
B7 29 true 55 56 
B7 30 true 57 58 
B7 31 true 59 60 
B7 32 true 61 62 
B7 33 true 63 64 
B7 34 true 65 66 
B7 35 true 67 68 
B7 36 true 69 70 
B7 37 true 71 72 
B7 38 true 73 74 
B7 39 true 75 76 
B7 40 true 77 78 
B7 41 true 79 80 
B7 42 true 81 82 
B7 43 true 83 84 
B7 44 true 85 86 
B7 45 true 87 88 
B7 46 true 89 90 
B7 47 true 91 92 
B7 48 true 93 94 
B7 49 true 95 96 
B7 50 true 97 98 
B7 51 false 6 1022 1023 1031 1032 1041 1042 
B7 52 false 6 1123 1124 1132 1133 1142 1143 
B7 53 true 99 100 
B7 54 true 101 102 
B7 55 true 103 104 
B7 56 true 105 106 
B7 57 false 7 334 362 404 421 446 488 505 
B7 58 true 107 108 
B7 59 true 109 110 
B7 60 true 111 112 
B6 1 true 1 2 
B6 2 true 3 4 
B6 3 true 5 6 
B6 4 true 7 8 
B6 5 true 9 10 
B6 6 true 11 12 
B6 7 true 13 14 
B6 8 true 15 16 
B6 9 true 17 18 
B6 10 true 19 20 
B6 11 true 21 22 
B6 12 true 23 24 
B6 13 true 25 26 
B6 14 true 27 28 
B6 15 true 29 30 
B6 16 true 31 32 
B6 17 true 33 34 
B6 18 true 35 36 
B6 19 true 37 38 
B6 20 true 39 40 
B6 21 true 41 42 
B6 22 true 43 44 
B6 23 true 45 46 
B6 24 true 47 48 
B6 25 true 49 50 
B6 26 true 51 52 
B6 27 true 53 54 
B6 28 true 55 56 
B6 29 true 57 58 
B6 30 true 59 60 
B5 1 true 1 2 
B5 2 true 3 4 
B5 3 false 24 666 667 668 669 670 671 672 673 674 675 676 677 850 851 852 853 854 855 856 857 858 859 860 861 
B5 4 true 5 6 
B5 5 true 7 8 
B5 6 true 9 10 
B5 7 true 11 12 
B5 8 true 13 14 
B5 9 true 15 16 
B5 10 true 17 18 
B5 11 true 19 20 
B5 12 true 21 22 
B5 13 true 23 24 
B5 14 true 25 26 
B5 15 true 27 28 
B5 16 true 29 30 
B4 1 true 1 2 
B4 2 true 3 4 
B4 3 true 5 6 
B4 4 true 7 8 
B4 5 true 9 10 
B4 6 true 11 12 
B4 7 true 13 14 
B4 8 true 15 16 
B3 1 true 1 2 
B3 2 true 3 4 
B3 3 true 5 6 
B3 4 true 7 8 
B2 1 true 1 2 
B2 2 true 3 4 
B1 1 true 1 2 